Digital_Circuit_Design/hw2/simulation/qsim/hw2.msim.vcd
$comment
	File created using the following command:
		vcd file hw2.msim.vcd -direction
$end
$date
	Sun Oct 27 22:13:51 2019
$end
$version
	ModelSim Version 10.1d
$end
$timescale
	1ps
$end
$scope module fDIV27M_vlg_vec_tst $end
$var reg 32 ! DIVN [31:0] $end
$var reg 1 " fin $end
$var wire 1 # fout $end
$var wire 1 $ sampler $end
$scope module i1 $end
$var wire 1 % gnd $end
$var wire 1 & vcc $end
$var wire 1 ' unknown $end
$var tri1 1 ( devclrn $end
$var tri1 1 ) devpor $end
$var tri1 1 * devoe $end
$var wire 1 + count[10]~52_combout $end
$var wire 1 , count[21]~74_combout $end
$var wire 1 - count[26]~84_combout $end
$var wire 1 . fin~combout $end
$var wire 1 / fin~clkctrl_outclk $end
$var wire 1 0 count[0]~32_combout $end
$var wire 1 1 count[30]~93 $end
$var wire 1 2 count[31]~94_combout $end
$var wire 1 3 count[28]~88_combout $end
$var wire 1 4 count[22]~76_combout $end
$var wire 1 5 count[12]~56_combout $end
$var wire 1 6 count[6]~44_combout $end
$var wire 1 7 count[5]~42_combout $end
$var wire 1 8 LessThan0~1_cout $end
$var wire 1 9 LessThan0~3_cout $end
$var wire 1 : LessThan0~5_cout $end
$var wire 1 ; LessThan0~7_cout $end
$var wire 1 < LessThan0~9_cout $end
$var wire 1 = LessThan0~11_cout $end
$var wire 1 > LessThan0~13_cout $end
$var wire 1 ? LessThan0~15_cout $end
$var wire 1 @ LessThan0~17_cout $end
$var wire 1 A LessThan0~19_cout $end
$var wire 1 B LessThan0~21_cout $end
$var wire 1 C LessThan0~23_cout $end
$var wire 1 D LessThan0~25_cout $end
$var wire 1 E LessThan0~27_cout $end
$var wire 1 F LessThan0~29_cout $end
$var wire 1 G LessThan0~31_cout $end
$var wire 1 H LessThan0~33_cout $end
$var wire 1 I LessThan0~35_cout $end
$var wire 1 J LessThan0~37_cout $end
$var wire 1 K LessThan0~39_cout $end
$var wire 1 L LessThan0~41_cout $end
$var wire 1 M LessThan0~43_cout $end
$var wire 1 N LessThan0~45_cout $end
$var wire 1 O LessThan0~47_cout $end
$var wire 1 P LessThan0~49_cout $end
$var wire 1 Q LessThan0~51_cout $end
$var wire 1 R LessThan0~53_cout $end
$var wire 1 S LessThan0~55_cout $end
$var wire 1 T LessThan0~57_cout $end
$var wire 1 U LessThan0~59_cout $end
$var wire 1 V LessThan0~61_cout $end
$var wire 1 W LessThan0~62_combout $end
$var wire 1 X count[0]~33 $end
$var wire 1 Y count[1]~34_combout $end
$var wire 1 Z count[1]~35 $end
$var wire 1 [ count[2]~36_combout $end
$var wire 1 \ count[2]~37 $end
$var wire 1 ] count[3]~39 $end
$var wire 1 ^ count[4]~40_combout $end
$var wire 1 _ count[4]~41 $end
$var wire 1 ` count[5]~43 $end
$var wire 1 a count[6]~45 $end
$var wire 1 b count[7]~46_combout $end
$var wire 1 c count[7]~47 $end
$var wire 1 d count[8]~49 $end
$var wire 1 e count[9]~50_combout $end
$var wire 1 f count[9]~51 $end
$var wire 1 g count[10]~53 $end
$var wire 1 h count[11]~54_combout $end
$var wire 1 i count[11]~55 $end
$var wire 1 j count[12]~57 $end
$var wire 1 k count[13]~58_combout $end
$var wire 1 l count[13]~59 $end
$var wire 1 m count[14]~60_combout $end
$var wire 1 n count[14]~61 $end
$var wire 1 o count[15]~62_combout $end
$var wire 1 p count[15]~63 $end
$var wire 1 q count[16]~64_combout $end
$var wire 1 r count[16]~65 $end
$var wire 1 s count[17]~66_combout $end
$var wire 1 t count[17]~67 $end
$var wire 1 u count[18]~68_combout $end
$var wire 1 v count[18]~69 $end
$var wire 1 w count[19]~71 $end
$var wire 1 x count[20]~72_combout $end
$var wire 1 y count[20]~73 $end
$var wire 1 z count[21]~75 $end
$var wire 1 { count[22]~77 $end
$var wire 1 | count[23]~78_combout $end
$var wire 1 } count[23]~79 $end
$var wire 1 ~ count[24]~81 $end
$var wire 1 !! count[25]~82_combout $end
$var wire 1 "! count[25]~83 $end
$var wire 1 #! count[26]~85 $end
$var wire 1 $! count[27]~86_combout $end
$var wire 1 %! count[27]~87 $end
$var wire 1 &! count[28]~89 $end
$var wire 1 '! count[29]~90_combout $end
$var wire 1 (! count[29]~91 $end
$var wire 1 )! count[30]~92_combout $end
$var wire 1 *! count[24]~80_combout $end
$var wire 1 +! count[19]~70_combout $end
$var wire 1 ,! count[8]~48_combout $end
$var wire 1 -! count[3]~38_combout $end
$var wire 1 .! LessThan1~1_cout $end
$var wire 1 /! LessThan1~3_cout $end
$var wire 1 0! LessThan1~5_cout $end
$var wire 1 1! LessThan1~7_cout $end
$var wire 1 2! LessThan1~9_cout $end
$var wire 1 3! LessThan1~11_cout $end
$var wire 1 4! LessThan1~13_cout $end
$var wire 1 5! LessThan1~15_cout $end
$var wire 1 6! LessThan1~17_cout $end
$var wire 1 7! LessThan1~19_cout $end
$var wire 1 8! LessThan1~21_cout $end
$var wire 1 9! LessThan1~23_cout $end
$var wire 1 :! LessThan1~25_cout $end
$var wire 1 ;! LessThan1~27_cout $end
$var wire 1 <! LessThan1~29_cout $end
$var wire 1 =! LessThan1~31_cout $end
$var wire 1 >! LessThan1~33_cout $end
$var wire 1 ?! LessThan1~35_cout $end
$var wire 1 @! LessThan1~37_cout $end
$var wire 1 A! LessThan1~39_cout $end
$var wire 1 B! LessThan1~41_cout $end
$var wire 1 C! LessThan1~43_cout $end
$var wire 1 D! LessThan1~45_cout $end
$var wire 1 E! LessThan1~47_cout $end
$var wire 1 F! LessThan1~49_cout $end
$var wire 1 G! LessThan1~51_cout $end
$var wire 1 H! LessThan1~53_cout $end
$var wire 1 I! LessThan1~55_cout $end
$var wire 1 J! LessThan1~57_cout $end
$var wire 1 K! LessThan1~59_cout $end
$var wire 1 L! LessThan1~60_combout $end
$var wire 1 M! LessThan1~62_combout $end
$var wire 1 N! fout~reg0_regout $end
$var wire 1 O! DIVN~combout [31] $end
$var wire 1 P! DIVN~combout [30] $end
$var wire 1 Q! DIVN~combout [29] $end
$var wire 1 R! DIVN~combout [28] $end
$var wire 1 S! DIVN~combout [27] $end
$var wire 1 T! DIVN~combout [26] $end
$var wire 1 U! DIVN~combout [25] $end
$var wire 1 V! DIVN~combout [24] $end
$var wire 1 W! DIVN~combout [23] $end
$var wire 1 X! DIVN~combout [22] $end
$var wire 1 Y! DIVN~combout [21] $end
$var wire 1 Z! DIVN~combout [20] $end
$var wire 1 [! DIVN~combout [19] $end
$var wire 1 \! DIVN~combout [18] $end
$var wire 1 ]! DIVN~combout [17] $end
$var wire 1 ^! DIVN~combout [16] $end
$var wire 1 _! DIVN~combout [15] $end
$var wire 1 `! DIVN~combout [14] $end
$var wire 1 a! DIVN~combout [13] $end
$var wire 1 b! DIVN~combout [12] $end
$var wire 1 c! DIVN~combout [11] $end
$var wire 1 d! DIVN~combout [10] $end
$var wire 1 e! DIVN~combout [9] $end
$var wire 1 f! DIVN~combout [8] $end
$var wire 1 g! DIVN~combout [7] $end
$var wire 1 h! DIVN~combout [6] $end
$var wire 1 i! DIVN~combout [5] $end
$var wire 1 j! DIVN~combout [4] $end
$var wire 1 k! DIVN~combout [3] $end
$var wire 1 l! DIVN~combout [2] $end
$var wire 1 m! DIVN~combout [1] $end
$var wire 1 n! DIVN~combout [0] $end
$var wire 1 o! count [31] $end
$var wire 1 p! count [30] $end
$var wire 1 q! count [29] $end
$var wire 1 r! count [28] $end
$var wire 1 s! count [27] $end
$var wire 1 t! count [26] $end
$var wire 1 u! count [25] $end
$var wire 1 v! count [24] $end
$var wire 1 w! count [23] $end
$var wire 1 x! count [22] $end
$var wire 1 y! count [21] $end
$var wire 1 z! count [20] $end
$var wire 1 {! count [19] $end
$var wire 1 |! count [18] $end
$var wire 1 }! count [17] $end
$var wire 1 ~! count [16] $end
$var wire 1 !" count [15] $end
$var wire 1 "" count [14] $end
$var wire 1 #" count [13] $end
$var wire 1 $" count [12] $end
$var wire 1 %" count [11] $end
$var wire 1 &" count [10] $end
$var wire 1 '" count [9] $end
$var wire 1 (" count [8] $end
$var wire 1 )" count [7] $end
$var wire 1 *" count [6] $end
$var wire 1 +" count [5] $end
$var wire 1 ," count [4] $end
$var wire 1 -" count [3] $end
$var wire 1 ." count [2] $end
$var wire 1 /" count [1] $end
$var wire 1 0" count [0] $end
$upscope $end
$upscope $end
$enddefinitions $end
#0
$dumpvars
b10011000100101101000000 !
0"
0#
x$
0%
1&
x'
1(
1)
1*
0+
0,
0-
0.
0/
10
01
02
03
04
05
06
07
08
19
0:
1;
0<
1=
1>
0?
1@
0A
1B
0C
1D
0E
1F
0G
1H
0I
1J
0K
1L
0M
1N
0O
1P
0Q
1R
0S
1T
0U
1V
1W
0X
0Y
1Z
0[
0\
1]
0^
0_
1`
0a
0b
1c
0d
0e
1f
0g
0h
1i
0j
0k
1l
0m
0n
0o
1p
0q
0r
0s
1t
0u
0v
1w
0x
0y
1z
0{
0|
1}
0~
0!!
1"!
0#!
0$!
1%!
0&!
0'!
1(!
0)!
0*!
0+!
0,!
0-!
0.!
1/!
00!
11!
02!
13!
04!
15!
06!
17!
08!
19!
0:!
1;!
0<!
1=!
0>!
1?!
0@!
1A!
0B!
1C!
0D!
1E!
0F!
1G!
0H!
1I!
0J!
1K!
0L!
1M!
0N!
0n!
0m!
0l!
0k!
0j!
0i!
1h!
0g!
1f!
1e!
0d!
1c!
0b!
0a!
1`!
0_!
0^!
0]!
1\!
1[!
0Z!
0Y!
1X!
0W!
0V!
0U!
0T!
0S!
0R!
0Q!
0P!
0O!
00"
0/"
0."
0-"
0,"
0+"
0*"
0)"
0("
0'"
0&"
0%"
0$"
0#"
0""
0!"
0~!
0}!
0|!
0{!
0z!
0y!
0x!
0w!
0v!
0u!
0t!
0s!
0r!
0q!
0p!
0o!
$end
#10000
1"
1.
1/
0$
10"
1.!
1X
00
0/!
1Y
10!
01!
12!
#20000
0"
0.
0/
1$
1N!
1#
#30000
1"
1.
1/
0$
1/"
00"
0Z
0Y
0.!
0X
10
1[
1Z
1Y
0[
#40000
0"
0.
0/
1$
#50000
1"
1.
1/
0$
10"
1.!
1X
00
0Z
0Y
1[
#60000
0"
0.
0/
1$
#70000
1"
1.
1/
0$
1."
0/"
00"
1\
0[
1Z
1Y
0.!
0X
10
1-!
0\
1[
1/!
0Y
0-!
#80000
0"
0.
0/
1$
#90000
1"
1.
1/
0$
10"
1.!
1X
00
0/!
1Y
#100000
0"
0.
0/
1$
#110000
1"
1.
1/
0$
1/"
00"
0Z
0Y
0.!
0X
10
1\
0[
1Z
1Y
1-!
0\
1[
0-!
#120000
0"
0.
0/
1$
#130000
1"
1.
1/
0$
10"
1.!
1X
00
0Z
0Y
1\
0[
1-!
#140000
0"
0.
0/
1$
#150000
1"
1.
1/
0$
1-"
0."
0/"
00"
0]
0-!
0\
1[
1Z
1Y
0.!
0X
10
1^
1]
1-!
0[
1/!
0Y
0^
00!
#160000
0"
0.
0/
1$
#170000
1"
1.
1/
0$
10"
1.!
1X
00
0/!
1Y
10!
#180000
0"
0.
0/
1$
#190000
1"
1.
1/
0$
1/"
00"
0Z
0Y
0.!
0X
10
1[
1Z
1Y
0[
#200000
0"
0.
0/
1$
#210000
1"
1.
1/
0$
10"
1.!
1X
00
0Z
0Y
1[
#220000
0"
0.
0/
1$
#230000
1"
1.
1/
0$
1."
0/"
00"
1\
0[
1Z
1Y
0.!
0X
10
0]
0-!
0\
1[
1/!
0Y
1^
1]
1-!
0^
#240000
0"
0.
0/
1$
#250000
1"
1.
1/
0$
10"
1.!
1X
00
0/!
1Y
#260000
0"
0.
0/
1$
#270000
1"
1.
1/
0$
1/"
00"
0Z
0Y
0.!
0X
10
1\
0[
1Z
1Y
0]
0-!
0\
1[
1^
1]
1-!
0^
#280000
0"
0.
0/
1$
#290000
1"
1.
1/
0$
10"
1.!
1X
00
0Z
0Y
1\
0[
0]
0-!
1^
#300000
0"
0.
0/
1$
#310000
1"
1.
1/
0$
0-"
1,"
0."
0/"
00"
1]
1-!
1_
0^
0\
1[
1Z
1Y
0.!
0X
10
0_
1^
17
0-!
0[
1/!
0Y
07
00!
11!
#320000
0"
0.
0/
1$
#330000
1"
1.
1/
0$
10"
1.!
1X
00
0/!
1Y
10!
01!
#340000
0"
0.
0/
1$
#350000
1"
1.
1/
0$
1/"
00"
0Z
0Y
0.!
0X
10
1[
1Z
1Y
0[
#360000
0"
0.
0/
1$
#370000
1"
1.
1/
0$
10"
1.!
1X
00
0Z
0Y
1[
#380000
0"
0.
0/
1$
#390000
1"
1.
1/
0$
1."
0/"
00"
1\
0[
1Z
1Y
0.!
0X
10
1-!
0\
1[
1/!
0Y
0-!
#400000
0"
0.
0/
1$
#410000
1"
1.
1/
0$
10"
1.!
1X
00
0/!
1Y
#420000
0"
0.
0/
1$
#430000
1"
1.
1/
0$
1/"
00"
0Z
0Y
0.!
0X
10
1\
0[
1Z
1Y
1-!
0\
1[
0-!
#440000
0"
0.
0/
1$
#450000
1"
1.
1/
0$
10"
1.!
1X
00
0Z
0Y
1\
0[
1-!
#460000
0"
0.
0/
1$
#470000
1"
1.
1/
0$
1-"
0."
0/"
00"
0]
0-!
0\
1[
1Z
1Y
0.!
0X
10
1_
0^
1]
1-!
0[
1/!
0Y
17
0_
1^
00!
07
#480000
0"
0.
0/
1$
#490000
1"
1.
1/
0$
10"
1.!
1X
00
0/!
1Y
10!
#500000
0"
0.
0/
1$
#510000
1"
1.
1/
0$
1/"
00"
0Z
0Y
0.!
0X
10
1[
1Z
1Y
0[
#520000
0"
0.
0/
1$
#530000
1"
1.
1/
0$
10"
1.!
1X
00
0Z
0Y
1[
#540000
0"
0.
0/
1$
#550000
1"
1.
1/
0$
1."
0/"
00"
1\
0[
1Z
1Y
0.!
0X
10
0]
0-!
0\
1[
1/!
0Y
1_
0^
1]
1-!
17
0_
1^
07
#560000
0"
0.
0/
1$
#570000
1"
1.
1/
0$
10"
1.!
1X
00
0/!
1Y
#580000
0"
0.
0/
1$
#590000
1"
1.
1/
0$
1/"
00"
0Z
0Y
0.!
0X
10
1\
0[
1Z
1Y
0]
0-!
0\
1[
1_
0^
1]
1-!
17
0_
1^
07
#600000
0"
0.
0/
1$
#610000
1"
1.
1/
0$
10"
1.!
1X
00
0Z
0Y
1\
0[
0]
0-!
1_
0^
17
#620000
0"
0.
0/
1$
#630000
1"
1.
1/
0$
0-"
0,"
0."
0/"
00"
1+"
1]
1-!
0_
1^
0\
1[
1Z
1Y
0.!
0X
10
03!
0`
07
0^
1`
17
0-!
0[
1/!
0Y
14!
16
06
00!
11!
02!
13!
04!
#640000
0"
0.
0/
1$
#650000
1"
1.
1/
0$
10"
1.!
1X
00
0/!
1Y
10!
01!
12!
03!
14!
#660000
0"
0.
0/
1$
#670000
1"
1.
1/
0$
1/"
00"
0Z
0Y
0.!
0X
10
1[
1Z
1Y
0[
#680000
0"
0.
0/
1$
#690000
1"
1.
1/
0$
10"
1.!
1X
00
0Z
0Y
1[
#700000
0"
0.
0/
1$
#710000
1"
1.
1/
0$
1."
0/"
00"
1\
0[
1Z
1Y
0.!
0X
10
1-!
0\
1[
1/!
0Y
0-!
#720000
0"
0.
0/
1$
#730000
1"
1.
1/
0$
10"
1.!
1X
00
0/!
1Y
#740000
0"
0.
0/
1$
#750000
1"
1.
1/
0$
1/"
00"
0Z
0Y
0.!
0X
10
1\
0[
1Z
1Y
1-!
0\
1[
0-!
#760000
0"
0.
0/
1$
#770000
1"
1.
1/
0$
10"
1.!
1X
00
0Z
0Y
1\
0[
1-!
#780000
0"
0.
0/
1$
#790000
1"
1.
1/
0$
1-"
0."
0/"
00"
0]
0-!
0\
1[
1Z
1Y
0.!
0X
10
1^
1]
1-!
0[
1/!
0Y
0^
00!
#800000
0"
0.
0/
1$
#810000
1"
1.
1/
0$
10"
1.!
1X
00
0/!
1Y
10!
#820000
0"
0.
0/
1$
#830000
1"
1.
1/
0$
1/"
00"
0Z
0Y
0.!
0X
10
1[
1Z
1Y
0[
#840000
0"
0.
0/
1$
#850000
1"
1.
1/
0$
10"
1.!
1X
00
0Z
0Y
1[
#860000
0"
0.
0/
1$
#870000
1"
1.
1/
0$
1."
0/"
00"
1\
0[
1Z
1Y
0.!
0X
10
0]
0-!
0\
1[
1/!
0Y
1^
1]
1-!
0^
#880000
0"
0.
0/
1$
#890000
1"
1.
1/
0$
10"
1.!
1X
00
0/!
1Y
#900000
0"
0.
0/
1$
#910000
1"
1.
1/
0$
1/"
00"
0Z
0Y
0.!
0X
10
1\
0[
1Z
1Y
0]
0-!
0\
1[
1^
1]
1-!
0^
#920000
0"
0.
0/
1$
#930000
1"
1.
1/
0$
10"
1.!
1X
00
0Z
0Y
1\
0[
0]
0-!
1^
#940000
0"
0.
0/
1$
#950000
1"
1.
1/
0$
0-"
1,"
0."
0/"
00"
1]
1-!
1_
0^
0\
1[
1Z
1Y
0.!
0X
10
0_
1^
0`
07
0-!
0[
1/!
0Y
1`
17
16
00!
06
11!
#960000
0"
0.
0/
1$
#970000
1"
1.
1/
0$
10"
1.!
1X
00
0/!
1Y
10!
01!
#980000
0"
0.
0/
1$
#990000
1"
1.
1/
0$
1/"
00"
0Z
0Y
0.!
0X
10
1[
1Z
1Y
0[
#1000000
0"
0.
0/
1$
#1010000
1"
1.
1/
0$
10"
1.!
1X
00
0Z
0Y
1[
#1020000
0"
0.
0/
1$
#1030000
1"
1.
1/
0$
1."
0/"
00"
1\
0[
1Z
1Y
0.!
0X
10
1-!
0\
1[
1/!
0Y
0-!
#1040000
0"
0.
0/
1$
#1050000
1"
1.
1/
0$
10"
1.!
1X
00
0/!
1Y
#1060000
0"
0.
0/
1$
#1070000
1"
1.
1/
0$
1/"
00"
0Z
0Y
0.!
0X
10
1\
0[
1Z
1Y
1-!
0\
1[
0-!
#1080000
0"
0.
0/
1$
#1090000
1"
1.
1/
0$
10"
1.!
1X
00
0Z
0Y
1\
0[
1-!
#1100000
0"
0.
0/
1$
#1110000
1"
1.
1/
0$
1-"
0."
0/"
00"
0]
0-!
0\
1[
1Z
1Y
0.!
0X
10
1_
0^
1]
1-!
0[
1/!
0Y
0`
07
0_
1^
00!
16
1`
17
06
#1120000
0"
0.
0/
1$
#1130000
1"
1.
1/
0$
10"
1.!
1X
00
0/!
1Y
10!
#1140000
0"
0.
0/
1$
#1150000
1"
1.
1/
0$
1/"
00"
0Z
0Y
0.!
0X
10
1[
1Z
1Y
0[
#1160000
0"
0.
0/
1$
#1170000
1"
1.
1/
0$
10"
1.!
1X
00
0Z
0Y
1[
#1180000
0"
0.
0/
1$
#1190000
1"
1.
1/
0$
1."
0/"
00"
1\
0[
1Z
1Y
0.!
0X
10
0]
0-!
0\
1[
1/!
0Y
1_
0^
1]
1-!
0`
07
0_
1^
16
1`
17
06
#1200000
0"
0.
0/
1$
#1210000
1"
1.
1/
0$
10"
1.!
1X
00
0/!
1Y
#1220000
0"
0.
0/
1$
#1230000
1"
1.
1/
0$
1/"
00"
0Z
0Y
0.!
0X
10
1\
0[
1Z
1Y
0]
0-!
0\
1[
1_
0^
1]
1-!
0`
07
0_
1^
16
1`
17
06
#1240000
0"
0.
0/
1$
#1250000
1"
1.
1/
0$
10"
1.!
1X
00
0Z
0Y
1\
0[
0]
0-!
1_
0^
0`
07
16
#1260000
0"
0.
0/
1$
#1270000
1"
1.
1/
0$
0-"
0,"
0."
0/"
00"
0+"
1*"
1]
1-!
0_
1^
0\
1[
1Z
1Y
0.!
0X
10
13!
1`
17
0>
1a
06
0^
07
0-!
0[
1/!
0Y
0a
16
1?
1b
00!
0b
11!
02!
#1280000
0"
0.
0/
1$
#1290000
1"
1.
1/
0$
10"
1.!
1X
00
0/!
1Y
10!
01!
12!
#1300000
0"
0.
0/
1$
#1310000
1"
1.
1/
0$
1/"
00"
0Z
0Y
0.!
0X
10
1[
1Z
1Y
0[
#1320000
0"
0.
0/
1$
#1330000
1"
1.
1/
0$
10"
1.!
1X
00
0Z
0Y
1[
#1340000
0"
0.
0/
1$
#1350000
1"
1.
1/
0$
1."
0/"
00"
1\
0[
1Z
1Y
0.!
0X
10
1-!
0\
1[
1/!
0Y
0-!
#1360000
0"
0.
0/
1$
#1370000
1"
1.
1/
0$
10"
1.!
1X
00
0/!
1Y
#1380000
0"
0.
0/
1$
#1390000
1"
1.
1/
0$
1/"
00"
0Z
0Y
0.!
0X
10
1\
0[
1Z
1Y
1-!
0\
1[
0-!
#1400000
0"
0.
0/
1$
#1410000
1"
1.
1/
0$
10"
1.!
1X
00
0Z
0Y
1\
0[
1-!
#1420000
0"
0.
0/
1$
#1430000
1"
1.
1/
0$
1-"
0."
0/"
00"
0]
0-!
0\
1[
1Z
1Y
0.!
0X
10
1^
1]
1-!
0[
1/!
0Y
0^
00!
#1440000
0"
0.
0/
1$
#1450000
1"
1.
1/
0$
10"
1.!
1X
00
0/!
1Y
10!
#1460000
0"
0.
0/
1$
#1470000
1"
1.
1/
0$
1/"
00"
0Z
0Y
0.!
0X
10
1[
1Z
1Y
0[
#1480000
0"
0.
0/
1$
#1490000
1"
1.
1/
0$
10"
1.!
1X
00
0Z
0Y
1[
#1500000
0"
0.
0/
1$
#1510000
1"
1.
1/
0$
1."
0/"
00"
1\
0[
1Z
1Y
0.!
0X
10
0]
0-!
0\
1[
1/!
0Y
1^
1]
1-!
0^
#1520000
0"
0.
0/
1$
#1530000
1"
1.
1/
0$
10"
1.!
1X
00
0/!
1Y
#1540000
0"
0.
0/
1$
#1550000
1"
1.
1/
0$
1/"
00"
0Z
0Y
0.!
0X
10
1\
0[
1Z
1Y
0]
0-!
0\
1[
1^
1]
1-!
0^
#1560000
0"
0.
0/
1$
#1570000
1"
1.
1/
0$
10"
1.!
1X
00
0Z
0Y
1\
0[
0]
0-!
1^
#1580000
0"
0.
0/
1$
#1590000
1"
1.
1/
0$
0-"
1,"
0."
0/"
00"
1]
1-!
1_
0^
0\
1[
1Z
1Y
0.!
0X
10
0_
1^
17
0-!
0[
1/!
0Y
07
00!
11!
#1600000
0"
0.
0/
1$
#1610000
1"
1.
1/
0$
10"
1.!
1X
00
0/!
1Y
10!
01!
#1620000
0"
0.
0/
1$
#1630000
1"
1.
1/
0$
1/"
00"
0Z
0Y
0.!
0X
10
1[
1Z
1Y
0[
#1640000
0"
0.
0/
1$
#1650000
1"
1.
1/
0$
10"
1.!
1X
00
0Z
0Y
1[
#1660000
0"
0.
0/
1$
#1670000
1"
1.
1/
0$
1."
0/"
00"
1\
0[
1Z
1Y
0.!
0X
10
1-!
0\
1[
1/!
0Y
0-!
#1680000
0"
0.
0/
1$
#1690000
1"
1.
1/
0$
10"
1.!
1X
00
0/!
1Y
#1700000
0"
0.
0/
1$
#1710000
1"
1.
1/
0$
1/"
00"
0Z
0Y
0.!
0X
10
1\
0[
1Z
1Y
1-!
0\
1[
0-!
#1720000
0"
0.
0/
1$
#1730000
1"
1.
1/
0$
10"
1.!
1X
00
0Z
0Y
1\
0[
1-!
#1740000
0"
0.
0/
1$
#1750000
1"
1.
1/
0$
1-"
0."
0/"
00"
0]
0-!
0\
1[
1Z
1Y
0.!
0X
10
1_
0^
1]
1-!
0[
1/!
0Y
17
0_
1^
00!
07
#1760000
0"
0.
0/
1$
#1770000
1"
1.
1/
0$
10"
1.!
1X
00
0/!
1Y
10!
#1780000
0"
0.
0/
1$
#1790000
1"
1.
1/
0$
1/"
00"
0Z
0Y
0.!
0X
10
1[
1Z
1Y
0[
#1800000
0"
0.
0/
1$
#1810000
1"
1.
1/
0$
10"
1.!
1X
00
0Z
0Y
1[
#1820000
0"
0.
0/
1$
#1830000
1"
1.
1/
0$
1."
0/"
00"
1\
0[
1Z
1Y
0.!
0X
10
0]
0-!
0\
1[
1/!
0Y
1_
0^
1]
1-!
17
0_
1^
07
#1840000
0"
0.
0/
1$
#1850000
1"
1.
1/
0$
10"
1.!
1X
00
0/!
1Y
#1860000
0"
0.
0/
1$
#1870000
1"
1.
1/
0$
1/"
00"
0Z
0Y
0.!
0X
10
1\
0[
1Z
1Y
0]
0-!
0\
1[
1_
0^
1]
1-!
17
0_
1^
07
#1880000
0"
0.
0/
1$
#1890000
1"
1.
1/
0$
10"
1.!
1X
00
0Z
0Y
1\
0[
0]
0-!
1_
0^
17
#1900000
0"
0.
0/
1$
#1910000
1"
1.
1/
0$
0-"
0,"
0."
0/"
00"
1+"
1]
1-!
0_
1^
0\
1[
1Z
1Y
0.!
0X
10
03!
0`
07
0^
1`
17
0-!
0[
1/!
0Y
1a
06
0a
16
00!
1b
0b
11!
02!
13!
#1920000
0"
0.
0/
1$
#1930000
1"
1.
1/
0$
10"
1.!
1X
00
0/!
1Y
10!
01!
12!
03!
#1940000
0"
0.
0/
1$
#1950000
1"
1.
1/
0$
1/"
00"
0Z
0Y
0.!
0X
10
1[
1Z
1Y
0[
#1960000
0"
0.
0/
1$
#1970000
1"
1.
1/
0$
10"
1.!
1X
00
0Z
0Y
1[
#1980000
0"
0.
0/
1$
#1990000
1"
1.
1/
0$
1."
0/"
00"
1\
0[
1Z
1Y
0.!
0X
10
1-!
0\
1[
1/!
0Y
0-!
#2000000
0"
0.
0/
1$
#2010000
1"
1.
1/
0$
10"
1.!
1X
00
0/!
1Y
#2020000
0"
0.
0/
1$
#2030000
1"
1.
1/
0$
1/"
00"
0Z
0Y
0.!
0X
10
1\
0[
1Z
1Y
1-!
0\
1[
0-!
#2040000
0"
0.
0/
1$
#2050000
1"
1.
1/
0$
10"
1.!
1X
00
0Z
0Y
1\
0[
1-!
#2060000
0"
0.
0/
1$
#2070000
1"
1.
1/
0$
1-"
0."
0/"
00"
0]
0-!
0\
1[
1Z
1Y
0.!
0X
10
1^
1]
1-!
0[
1/!
0Y
0^
00!
#2080000
0"
0.
0/
1$
#2090000
1"
1.
1/
0$
10"
1.!
1X
00
0/!
1Y
10!
#2100000
0"
0.
0/
1$
#2110000
1"
1.
1/
0$
1/"
00"
0Z
0Y
0.!
0X
10
1[
1Z
1Y
0[
#2120000
0"
0.
0/
1$
#2130000
1"
1.
1/
0$
10"
1.!
1X
00
0Z
0Y
1[
#2140000
0"
0.
0/
1$
#2150000
1"
1.
1/
0$
1."
0/"
00"
1\
0[
1Z
1Y
0.!
0X
10
0]
0-!
0\
1[
1/!
0Y
1^
1]
1-!
0^
#2160000
0"
0.
0/
1$
#2170000
1"
1.
1/
0$
10"
1.!
1X
00
0/!
1Y
#2180000
0"
0.
0/
1$
#2190000
1"
1.
1/
0$
1/"
00"
0Z
0Y
0.!
0X
10
1\
0[
1Z
1Y
0]
0-!
0\
1[
1^
1]
1-!
0^
#2200000
0"
0.
0/
1$
#2210000
1"
1.
1/
0$
10"
1.!
1X
00
0Z
0Y
1\
0[
0]
0-!
1^
#2220000
0"
0.
0/
1$
#2230000
1"
1.
1/
0$
0-"
1,"
0."
0/"
00"
1]
1-!
1_
0^
0\
1[
1Z
1Y
0.!
0X
10
0_
1^
0`
07
0-!
0[
1/!
0Y
1`
17
1a
06
00!
0a
16
1b
11!
0b
#2240000
0"
0.
0/
1$
#2250000
1"
1.
1/
0$
10"
1.!
1X
00
0/!
1Y
10!
01!
#2260000
0"
0.
0/
1$
#2270000
1"
1.
1/
0$
1/"
00"
0Z
0Y
0.!
0X
10
1[
1Z
1Y
0[
#2280000
0"
0.
0/
1$
#2290000
1"
1.
1/
0$
10"
1.!
1X
00
0Z
0Y
1[
#2300000
0"
0.
0/
1$
#2310000
1"
1.
1/
0$
1."
0/"
00"
1\
0[
1Z
1Y
0.!
0X
10
1-!
0\
1[
1/!
0Y
0-!
#2320000
0"
0.
0/
1$
#2330000
1"
1.
1/
0$
10"
1.!
1X
00
0/!
1Y
#2340000
0"
0.
0/
1$
#2350000
1"
1.
1/
0$
1/"
00"
0Z
0Y
0.!
0X
10
1\
0[
1Z
1Y
1-!
0\
1[
0-!
#2360000
0"
0.
0/
1$
#2370000
1"
1.
1/
0$
10"
1.!
1X
00
0Z
0Y
1\
0[
1-!
#2380000
0"
0.
0/
1$
#2390000
1"
1.
1/
0$
1-"
0."
0/"
00"
0]
0-!
0\
1[
1Z
1Y
0.!
0X
10
1_
0^
1]
1-!
0[
1/!
0Y
0`
07
0_
1^
00!
1a
06
1`
17
1b
0a
16
0b
#2400000
0"
0.
0/
1$
#2410000
1"
1.
1/
0$
10"
1.!
1X
00
0/!
1Y
10!
#2420000
0"
0.
0/
1$
#2430000
1"
1.
1/
0$
1/"
00"
0Z
0Y
0.!
0X
10
1[
1Z
1Y
0[
#2440000
0"
0.
0/
1$
#2450000
1"
1.
1/
0$
10"
1.!
1X
00
0Z
0Y
1[
#2460000
0"
0.
0/
1$
#2470000
1"
1.
1/
0$
1."
0/"
00"
1\
0[
1Z
1Y
0.!
0X
10
0]
0-!
0\
1[
1/!
0Y
1_
0^
1]
1-!
0`
07
0_
1^
1a
06
1`
17
1b
0a
16
0b
#2480000
0"
0.
0/
1$
#2490000
1"
1.
1/
0$
10"
1.!
1X
00
0/!
1Y
#2500000
0"
0.
0/
1$
#2510000
1"
1.
1/
0$
1/"
00"
0Z
0Y
0.!
0X
10
1\
0[
1Z
1Y
0]
0-!
0\
1[
1_
0^
1]
1-!
0`
07
0_
1^
1a
06
1`
17
1b
0a
16
0b
#2520000
0"
0.
0/
1$
#2530000
1"
1.
1/
0$
10"
1.!
1X
00
0Z
0Y
1\
0[
0]
0-!
1_
0^
0`
07
1a
06
1b
#2540000
0"
0.
0/
1$
