Digital_Circuit_Design/hw4(new)/simulation/qsim/hw4n.msim.vcd
$comment
	File created using the following command:
		vcd file hw4n.msim.vcd -direction
$end
$date
	Sun Nov 10 00:18:26 2019
$end
$version
	ModelSim Version 10.1d
$end
$timescale
	1ps
$end
$scope module hw4n_vlg_vec_tst $end
$var reg 2 ! Dip_sel [1:0] $end
$var reg 1 " F $end
$var reg 1 # reset $end
$var reg 1 $ sel $end
$var wire 1 % address_ [4] $end
$var wire 1 & address_ [3] $end
$var wire 1 ' address_ [2] $end
$var wire 1 ( address_ [1] $end
$var wire 1 ) address_ [0] $end
$var wire 1 * clk10M $end
$var wire 1 + clk25K $end
$var wire 1 , CP $end
$var wire 1 - data [15] $end
$var wire 1 . data [14] $end
$var wire 1 / data [13] $end
$var wire 1 0 data [12] $end
$var wire 1 1 data [11] $end
$var wire 1 2 data [10] $end
$var wire 1 3 data [9] $end
$var wire 1 4 data [8] $end
$var wire 1 5 data [7] $end
$var wire 1 6 data [6] $end
$var wire 1 7 data [5] $end
$var wire 1 8 data [4] $end
$var wire 1 9 data [3] $end
$var wire 1 : data [2] $end
$var wire 1 ; data [1] $end
$var wire 1 < data [0] $end
$var wire 1 = Dout $end
$var wire 1 > one_shot $end
$var wire 1 ? start $end
$var wire 1 @ str $end
$var wire 1 A sampler $end
$scope module i1 $end
$var wire 1 B gnd $end
$var wire 1 C vcc $end
$var wire 1 D unknown $end
$var tri1 1 E devclrn $end
$var tri1 1 F devpor $end
$var tri1 1 G devoe $end
$var wire 1 H inst3|count[12]~56_combout $end
$var wire 1 I inst3|count[18]~68_combout $end
$var wire 1 J inst3|count[22]~76_combout $end
$var wire 1 K inst3|count[28]~88_combout $end
$var wire 1 L inst2|count[5]~42_combout $end
$var wire 1 M inst2|Add0~0_combout $end
$var wire 1 N inst2|Add0~4_combout $end
$var wire 1 O inst2|Add0~6_combout $end
$var wire 1 P inst2|Add0~18_combout $end
$var wire 1 Q inst2|Add0~22_combout $end
$var wire 1 R inst2|Add0~26_combout $end
$var wire 1 S inst2|Add0~28_combout $end
$var wire 1 T inst2|Add0~34_combout $end
$var wire 1 U inst2|Add0~36_combout $end
$var wire 1 V inst2|Add0~38_combout $end
$var wire 1 W inst2|count[26]~84_combout $end
$var wire 1 X inst2|count[28]~88_combout $end
$var wire 1 Y inst3|LessThan1~1_combout $end
$var wire 1 Z inst2|LessThan1~0_combout $end
$var wire 1 [ inst2|LessThan1~9_combout $end
$var wire 1 \ inst2|LessThan1~10_combout $end
$var wire 1 ] inst2|LessThan1~12_combout $end
$var wire 1 ^ inst2|LessThan1~15_combout $end
$var wire 1 _ inst2|LessThan1~18_combout $end
$var wire 1 ` inst2|LessThan1~19_combout $end
$var wire 1 a inst2|LessThan1~20_combout $end
$var wire 1 b inst2|LessThan1~21_combout $end
$var wire 1 c inst2|LessThan1~23_combout $end
$var wire 1 d inst2|LessThan1~24_combout $end
$var wire 1 e inst2|LessThan1~25_combout $end
$var wire 1 f inst3|LessThan0~0_combout $end
$var wire 1 g inst3|LessThan0~1_combout $end
$var wire 1 h inst2|LessThan0~2_combout $end
$var wire 1 i inst2|LessThan0~3_combout $end
$var wire 1 j inst2|LessThan0~16_combout $end
$var wire 1 k inst2|LessThan0~18_combout $end
$var wire 1 l inst2|LessThan0~19_combout $end
$var wire 1 m inst2|LessThan0~27_combout $end
$var wire 1 n inst2|LessThan0~28_combout $end
$var wire 1 o inst6|store[12]~_emulated_regout $end
$var wire 1 p inst6|store[12]~15_combout $end
$var wire 1 q inst6|store[11]~_emulated_regout $end
$var wire 1 r inst6|store[11]~18_combout $end
$var wire 1 s inst6|store[11]~19_combout $end
$var wire 1 t inst6|store[10]~_emulated_regout $end
$var wire 1 u inst6|store[10]~22_combout $end
$var wire 1 v inst6|store[10]~23_combout $end
$var wire 1 w inst6|store[9]~_emulated_regout $end
$var wire 1 x inst6|store[9]~26_combout $end
$var wire 1 y inst6|store[9]~27_combout $end
$var wire 1 z inst6|store[8]~_emulated_regout $end
$var wire 1 { inst6|store[8]~30_combout $end
$var wire 1 | inst6|store[8]~31_combout $end
$var wire 1 } inst6|store[7]~_emulated_regout $end
$var wire 1 ~ inst6|store[7]~34_combout $end
$var wire 1 !! inst6|store[7]~35_combout $end
$var wire 1 "! inst6|store[6]~_emulated_regout $end
$var wire 1 #! inst6|store[6]~38_combout $end
$var wire 1 $! inst6|store[6]~39_combout $end
$var wire 1 %! inst6|store[5]~_emulated_regout $end
$var wire 1 &! inst6|store[5]~42_combout $end
$var wire 1 '! inst6|store[5]~43_combout $end
$var wire 1 (! inst6|store[4]~_emulated_regout $end
$var wire 1 )! inst6|store[4]~46_combout $end
$var wire 1 *! inst6|store[4]~47_combout $end
$var wire 1 +! inst6|store[3]~_emulated_regout $end
$var wire 1 ,! inst6|store[3]~50_combout $end
$var wire 1 -! inst6|store[3]~51_combout $end
$var wire 1 .! inst6|store[2]~_emulated_regout $end
$var wire 1 /! inst6|store[2]~54_combout $end
$var wire 1 0! inst6|store[2]~55_combout $end
$var wire 1 1! inst6|store[1]~_emulated_regout $end
$var wire 1 2! inst6|store[1]~58_combout $end
$var wire 1 3! inst6|store[1]~59_combout $end
$var wire 1 4! inst2|LessThan0~33_combout $end
$var wire 1 5! inst6|store[11]~17_combout $end
$var wire 1 6! inst6|store[10]~21_combout $end
$var wire 1 7! inst6|store[9]~25_combout $end
$var wire 1 8! inst6|store[8]~29_combout $end
$var wire 1 9! inst6|store[7]~33_combout $end
$var wire 1 :! inst6|store[6]~37_combout $end
$var wire 1 ;! inst6|store[5]~41_combout $end
$var wire 1 <! inst6|store[4]~45_combout $end
$var wire 1 =! inst6|store[3]~49_combout $end
$var wire 1 >! inst6|store[2]~53_combout $end
$var wire 1 ?! inst6|store[1]~57_combout $end
$var wire 1 @! inst2|fout~clkctrl_outclk $end
$var wire 1 A! inst3|fout~clkctrl_outclk $end
$var wire 1 B! inst4|count[0]~5_combout $end
$var wire 1 C! inst4|count[0]~6 $end
$var wire 1 D! inst4|count[1]~7_combout $end
$var wire 1 E! inst4|count[1]~8 $end
$var wire 1 F! inst4|count[2]~10 $end
$var wire 1 G! inst4|count[3]~11_combout $end
$var wire 1 H! inst4|count[3]~12 $end
$var wire 1 I! inst4|count[4]~13_combout $end
$var wire 1 J! inst2|count[0]~32_combout $end
$var wire 1 K! inst2|count[22]~77 $end
$var wire 1 L! inst2|count[23]~78_combout $end
$var wire 1 M! inst2|count[23]~79 $end
$var wire 1 N! inst2|count[24]~81 $end
$var wire 1 O! inst2|count[25]~82_combout $end
$var wire 1 P! inst2|count[25]~83 $end
$var wire 1 Q! inst2|count[26]~85 $end
$var wire 1 R! inst2|count[27]~86_combout $end
$var wire 1 S! inst2|count[27]~87 $end
$var wire 1 T! inst2|count[28]~89 $end
$var wire 1 U! inst2|count[29]~90_combout $end
$var wire 1 V! inst2|count[29]~91 $end
$var wire 1 W! inst2|count[30]~92_combout $end
$var wire 1 X! inst2|count[30]~93 $end
$var wire 1 Y! inst2|count[31]~94_combout $end
$var wire 1 Z! inst2|LessThan1~1_combout $end
$var wire 1 [! inst2|Add0~2_combout $end
$var wire 1 \! inst2|count[24]~80_combout $end
$var wire 1 ]! inst2|LessThan0~30_combout $end
$var wire 1 ^! inst2|LessThan0~31_combout $end
$var wire 1 _! inst2|Add0~8_combout $end
$var wire 1 `! inst2|count[21]~74_combout $end
$var wire 1 a! inst2|LessThan0~26_combout $end
$var wire 1 b! inst2|Add0~10_combout $end
$var wire 1 c! inst2|LessThan0~4_combout $end
$var wire 1 d! inst2|Add0~12_combout $end
$var wire 1 e! inst2|LessThan0~24_combout $end
$var wire 1 f! inst2|LessThan0~25_combout $end
$var wire 1 g! inst2|LessThan0~5_combout $end
$var wire 1 h! inst2|LessThan0~6_combout $end
$var wire 1 i! inst2|LessThan0~7_combout $end
$var wire 1 j! inst2|Add0~15_cout $end
$var wire 1 k! inst2|Add0~17_cout $end
$var wire 1 l! inst2|Add0~19 $end
$var wire 1 m! inst2|Add0~21 $end
$var wire 1 n! inst2|Add0~23 $end
$var wire 1 o! inst2|Add0~25 $end
$var wire 1 p! inst2|Add0~27 $end
$var wire 1 q! inst2|Add0~29 $end
$var wire 1 r! inst2|Add0~31 $end
$var wire 1 s! inst2|Add0~32_combout $end
$var wire 1 t! inst2|LessThan0~21_combout $end
$var wire 1 u! inst2|LessThan0~8_combout $end
$var wire 1 v! inst2|LessThan0~9_combout $end
$var wire 1 w! inst2|Add0~30_combout $end
$var wire 1 x! inst2|LessThan0~20_combout $end
$var wire 1 y! inst2|LessThan0~22_combout $end
$var wire 1 z! inst2|count[8]~48_combout $end
$var wire 1 {! inst2|LessThan0~17_combout $end
$var wire 1 |! inst2|count[10]~52_combout $end
$var wire 1 }! inst2|LessThan0~10_combout $end
$var wire 1 ~! inst2|LessThan0~11_combout $end
$var wire 1 !" inst2|Add0~20_combout $end
$var wire 1 "" inst2|count[6]~44_combout $end
$var wire 1 #" inst2|Add0~24_combout $end
$var wire 1 $" inst2|LessThan0~15_combout $end
$var wire 1 %" inst2|Decoder0~0_combout $end
$var wire 1 &" inst2|count[3]~38_combout $end
$var wire 1 '" inst2|LessThan0~12_combout $end
$var wire 1 (" inst2|LessThan0~13_combout $end
$var wire 1 )" inst2|LessThan0~14_combout $end
$var wire 1 *" inst2|LessThan0~34_combout $end
$var wire 1 +" inst2|LessThan0~35_combout $end
$var wire 1 ," inst2|LessThan0~23_combout $end
$var wire 1 -" inst2|LessThan0~29_combout $end
$var wire 1 ." inst2|LessThan0~32_combout $end
$var wire 1 /" inst2|count[0]~33 $end
$var wire 1 0" inst2|count[1]~34_combout $end
$var wire 1 1" inst2|count[1]~35 $end
$var wire 1 2" inst2|count[2]~36_combout $end
$var wire 1 3" inst2|count[2]~37 $end
$var wire 1 4" inst2|count[3]~39 $end
$var wire 1 5" inst2|count[4]~40_combout $end
$var wire 1 6" inst2|count[4]~41 $end
$var wire 1 7" inst2|count[5]~43 $end
$var wire 1 8" inst2|count[6]~45 $end
$var wire 1 9" inst2|count[7]~46_combout $end
$var wire 1 :" inst2|count[7]~47 $end
$var wire 1 ;" inst2|count[8]~49 $end
$var wire 1 <" inst2|count[9]~50_combout $end
$var wire 1 =" inst2|count[9]~51 $end
$var wire 1 >" inst2|count[10]~53 $end
$var wire 1 ?" inst2|count[11]~54_combout $end
$var wire 1 @" inst2|count[11]~55 $end
$var wire 1 A" inst2|count[12]~56_combout $end
$var wire 1 B" inst2|count[12]~57 $end
$var wire 1 C" inst2|count[13]~58_combout $end
$var wire 1 D" inst2|count[13]~59 $end
$var wire 1 E" inst2|count[14]~60_combout $end
$var wire 1 F" inst2|count[14]~61 $end
$var wire 1 G" inst2|count[15]~62_combout $end
$var wire 1 H" inst2|count[15]~63 $end
$var wire 1 I" inst2|count[16]~64_combout $end
$var wire 1 J" inst2|count[16]~65 $end
$var wire 1 K" inst2|count[17]~66_combout $end
$var wire 1 L" inst2|count[17]~67 $end
$var wire 1 M" inst2|count[18]~68_combout $end
$var wire 1 N" inst2|count[18]~69 $end
$var wire 1 O" inst2|count[19]~71 $end
$var wire 1 P" inst2|count[20]~72_combout $end
$var wire 1 Q" inst2|count[20]~73 $end
$var wire 1 R" inst2|count[21]~75 $end
$var wire 1 S" inst2|count[22]~76_combout $end
$var wire 1 T" inst2|LessThan1~31_combout $end
$var wire 1 U" inst2|LessThan1~28_combout $end
$var wire 1 V" inst2|count[19]~70_combout $end
$var wire 1 W" inst2|LessThan1~26_combout $end
$var wire 1 X" inst2|LessThan1~27_combout $end
$var wire 1 Y" inst2|LessThan1~29_combout $end
$var wire 1 Z" inst2|LessThan1~6_combout $end
$var wire 1 [" inst2|LessThan1~11_combout $end
$var wire 1 \" inst2|LessThan1~13_combout $end
$var wire 1 ]" inst2|LessThan1~7_combout $end
$var wire 1 ^" inst2|LessThan1~8_combout $end
$var wire 1 _" inst2|LessThan1~14_combout $end
$var wire 1 `" inst2|LessThan1~16_combout $end
$var wire 1 a" inst2|LessThan1~17_combout $end
$var wire 1 b" inst2|LessThan1~4_combout $end
$var wire 1 c" inst2|LessThan1~3_combout $end
$var wire 1 d" inst2|LessThan1~5_combout $end
$var wire 1 e" inst2|LessThan1~22_combout $end
$var wire 1 f" inst2|LessThan1~2_combout $end
$var wire 1 g" inst2|LessThan1~30_combout $end
$var wire 1 h" inst2|LessThan1~32_combout $end
$var wire 1 i" reset~combout $end
$var wire 1 j" reset~clkctrl_outclk $end
$var wire 1 k" inst2|fout~regout $end
$var wire 1 l" inst10|Selector0~0_combout $end
$var wire 1 m" inst10|cs.00~regout $end
$var wire 1 n" inst10|ns.01~0_combout $end
$var wire 1 o" inst10|cs.01~regout $end
$var wire 1 p" inst10|shot~feeder_combout $end
$var wire 1 q" inst10|shot~regout $end
$var wire 1 r" inst4|Selector0~0_combout $end
$var wire 1 s" inst4|count[2]~9_combout $end
$var wire 1 t" inst4|Equal0~0_combout $end
$var wire 1 u" inst4|Selector0~1_combout $end
$var wire 1 v" inst4|state.000~regout $end
$var wire 1 w" inst4|nstate.001~0_combout $end
$var wire 1 x" inst4|state.001~regout $end
$var wire 1 y" inst4|Selector1~0_combout $end
$var wire 1 z" inst4|state.010~regout $end
$var wire 1 {" inst4|Equal1~0_combout $end
$var wire 1 |" inst4|Equal1~1_combout $end
$var wire 1 }" F~combout $end
$var wire 1 ~" F~clkctrl_outclk $end
$var wire 1 !# inst3|count[0]~32_combout $end
$var wire 1 "# inst3|count[3]~39 $end
$var wire 1 ## inst3|count[4]~40_combout $end
$var wire 1 $# inst3|count[4]~41 $end
$var wire 1 %# inst3|count[5]~43 $end
$var wire 1 &# inst3|count[6]~45 $end
$var wire 1 '# inst3|count[7]~46_combout $end
$var wire 1 (# inst3|count[7]~47 $end
$var wire 1 )# inst3|count[8]~49 $end
$var wire 1 *# inst3|count[9]~50_combout $end
$var wire 1 +# inst3|count[6]~44_combout $end
$var wire 1 ,# inst3|count[8]~48_combout $end
$var wire 1 -# inst3|LessThan1~8_combout $end
$var wire 1 .# inst3|count[9]~51 $end
$var wire 1 /# inst3|count[10]~53 $end
$var wire 1 0# inst3|count[11]~54_combout $end
$var wire 1 1# inst3|count[11]~55 $end
$var wire 1 2# inst3|count[12]~57 $end
$var wire 1 3# inst3|count[13]~58_combout $end
$var wire 1 4# inst3|count[13]~59 $end
$var wire 1 5# inst3|count[14]~60_combout $end
$var wire 1 6# inst3|count[14]~61 $end
$var wire 1 7# inst3|count[15]~62_combout $end
$var wire 1 8# inst3|count[15]~63 $end
$var wire 1 9# inst3|count[16]~64_combout $end
$var wire 1 :# inst3|count[16]~65 $end
$var wire 1 ;# inst3|count[17]~66_combout $end
$var wire 1 <# inst3|count[17]~67 $end
$var wire 1 =# inst3|count[18]~69 $end
$var wire 1 ># inst3|count[19]~71 $end
$var wire 1 ?# inst3|count[20]~72_combout $end
$var wire 1 @# inst3|count[20]~73 $end
$var wire 1 A# inst3|count[21]~74_combout $end
$var wire 1 B# inst3|count[21]~75 $end
$var wire 1 C# inst3|count[22]~77 $end
$var wire 1 D# inst3|count[23]~78_combout $end
$var wire 1 E# inst3|count[23]~79 $end
$var wire 1 F# inst3|count[24]~81 $end
$var wire 1 G# inst3|count[25]~82_combout $end
$var wire 1 H# inst3|count[25]~83 $end
$var wire 1 I# inst3|count[26]~85 $end
$var wire 1 J# inst3|count[27]~86_combout $end
$var wire 1 K# inst3|count[27]~87 $end
$var wire 1 L# inst3|count[28]~89 $end
$var wire 1 M# inst3|count[29]~90_combout $end
$var wire 1 N# inst3|count[29]~91 $end
$var wire 1 O# inst3|count[30]~92_combout $end
$var wire 1 P# inst3|count[30]~93 $end
$var wire 1 Q# inst3|count[31]~94_combout $end
$var wire 1 R# inst3|LessThan1~0_combout $end
$var wire 1 S# inst3|count[19]~70_combout $end
$var wire 1 T# inst3|LessThan1~2_combout $end
$var wire 1 U# inst3|count[24]~80_combout $end
$var wire 1 V# inst3|count[26]~84_combout $end
$var wire 1 W# inst3|LessThan1~3_combout $end
$var wire 1 X# inst3|LessThan1~4_combout $end
$var wire 1 Y# inst3|LessThan1~5_combout $end
$var wire 1 Z# inst3|LessThan1~6_combout $end
$var wire 1 [# inst3|count[10]~52_combout $end
$var wire 1 \# inst3|LessThan0~2_combout $end
$var wire 1 ]# inst3|count[0]~33 $end
$var wire 1 ^# inst3|count[1]~34_combout $end
$var wire 1 _# inst3|count[1]~35 $end
$var wire 1 `# inst3|count[2]~36_combout $end
$var wire 1 a# inst3|count[2]~37 $end
$var wire 1 b# inst3|count[3]~38_combout $end
$var wire 1 c# inst3|count[5]~42_combout $end
$var wire 1 d# inst3|LessThan1~7_combout $end
$var wire 1 e# inst3|LessThan1~9_combout $end
$var wire 1 f# inst3|fout~regout $end
$var wire 1 g# inst4|state.001~clkctrl_outclk $end
$var wire 1 h# ~GND~combout $end
$var wire 1 i# inst|Addr[0]~3_combout $end
$var wire 1 j# inst|Addr[1]~2_combout $end
$var wire 1 k# inst|Addr[2]~1_combout $end
$var wire 1 l# inst|Addr[3]~0_combout $end
$var wire 1 m# sel~combout $end
$var wire 1 n# inst6|store[15]~1_combout $end
$var wire 1 o# inst6|store[14]~5_combout $end
$var wire 1 p# inst6|store[13]~9_combout $end
$var wire 1 q# inst6|store[12]~13_combout $end
$var wire 1 r# inst6|store[12]~14_combout $end
$var wire 1 s# inst6|store[13]~11_combout $end
$var wire 1 t# inst6|store[13]~_emulated_regout $end
$var wire 1 u# inst6|store[13]~10_combout $end
$var wire 1 v# inst6|store[14]~7_combout $end
$var wire 1 w# inst6|store[14]~_emulated_regout $end
$var wire 1 x# inst6|store[14]~6_combout $end
$var wire 1 y# inst6|store[15]~3_combout $end
$var wire 1 z# inst6|store[15]~_emulated_regout $end
$var wire 1 {# inst6|store[15]~2_combout $end
$var wire 1 |# Dip_sel~combout [1] $end
$var wire 1 }# Dip_sel~combout [0] $end
$var wire 1 ~# inst6|store [15] $end
$var wire 1 !$ inst6|store [14] $end
$var wire 1 "$ inst6|store [13] $end
$var wire 1 #$ inst6|store [12] $end
$var wire 1 $$ inst6|store [11] $end
$var wire 1 %$ inst6|store [10] $end
$var wire 1 &$ inst6|store [9] $end
$var wire 1 '$ inst6|store [8] $end
$var wire 1 ($ inst6|store [7] $end
$var wire 1 )$ inst6|store [6] $end
$var wire 1 *$ inst6|store [5] $end
$var wire 1 +$ inst6|store [4] $end
$var wire 1 ,$ inst6|store [3] $end
$var wire 1 -$ inst6|store [2] $end
$var wire 1 .$ inst6|store [1] $end
$var wire 1 /$ inst6|store [0] $end
$var wire 1 0$ inst2|count [31] $end
$var wire 1 1$ inst2|count [30] $end
$var wire 1 2$ inst2|count [29] $end
$var wire 1 3$ inst2|count [28] $end
$var wire 1 4$ inst2|count [27] $end
$var wire 1 5$ inst2|count [26] $end
$var wire 1 6$ inst2|count [25] $end
$var wire 1 7$ inst2|count [24] $end
$var wire 1 8$ inst2|count [23] $end
$var wire 1 9$ inst2|count [22] $end
$var wire 1 :$ inst2|count [21] $end
$var wire 1 ;$ inst2|count [20] $end
$var wire 1 <$ inst2|count [19] $end
$var wire 1 =$ inst2|count [18] $end
$var wire 1 >$ inst2|count [17] $end
$var wire 1 ?$ inst2|count [16] $end
$var wire 1 @$ inst2|count [15] $end
$var wire 1 A$ inst2|count [14] $end
$var wire 1 B$ inst2|count [13] $end
$var wire 1 C$ inst2|count [12] $end
$var wire 1 D$ inst2|count [11] $end
$var wire 1 E$ inst2|count [10] $end
$var wire 1 F$ inst2|count [9] $end
$var wire 1 G$ inst2|count [8] $end
$var wire 1 H$ inst2|count [7] $end
$var wire 1 I$ inst2|count [6] $end
$var wire 1 J$ inst2|count [5] $end
$var wire 1 K$ inst2|count [4] $end
$var wire 1 L$ inst2|count [3] $end
$var wire 1 M$ inst2|count [2] $end
$var wire 1 N$ inst2|count [1] $end
$var wire 1 O$ inst2|count [0] $end
$var wire 1 P$ inst14|altsyncram_component|auto_generated|q_a [15] $end
$var wire 1 Q$ inst14|altsyncram_component|auto_generated|q_a [14] $end
$var wire 1 R$ inst14|altsyncram_component|auto_generated|q_a [13] $end
$var wire 1 S$ inst14|altsyncram_component|auto_generated|q_a [12] $end
$var wire 1 T$ inst14|altsyncram_component|auto_generated|q_a [11] $end
$var wire 1 U$ inst14|altsyncram_component|auto_generated|q_a [10] $end
$var wire 1 V$ inst14|altsyncram_component|auto_generated|q_a [9] $end
$var wire 1 W$ inst14|altsyncram_component|auto_generated|q_a [8] $end
$var wire 1 X$ inst14|altsyncram_component|auto_generated|q_a [7] $end
$var wire 1 Y$ inst14|altsyncram_component|auto_generated|q_a [6] $end
$var wire 1 Z$ inst14|altsyncram_component|auto_generated|q_a [5] $end
$var wire 1 [$ inst14|altsyncram_component|auto_generated|q_a [4] $end
$var wire 1 \$ inst14|altsyncram_component|auto_generated|q_a [3] $end
$var wire 1 ]$ inst14|altsyncram_component|auto_generated|q_a [2] $end
$var wire 1 ^$ inst14|altsyncram_component|auto_generated|q_a [1] $end
$var wire 1 _$ inst14|altsyncram_component|auto_generated|q_a [0] $end
$var wire 1 `$ inst4|count [4] $end
$var wire 1 a$ inst4|count [3] $end
$var wire 1 b$ inst4|count [2] $end
$var wire 1 c$ inst4|count [1] $end
$var wire 1 d$ inst4|count [0] $end
$var wire 1 e$ inst3|count [31] $end
$var wire 1 f$ inst3|count [30] $end
$var wire 1 g$ inst3|count [29] $end
$var wire 1 h$ inst3|count [28] $end
$var wire 1 i$ inst3|count [27] $end
$var wire 1 j$ inst3|count [26] $end
$var wire 1 k$ inst3|count [25] $end
$var wire 1 l$ inst3|count [24] $end
$var wire 1 m$ inst3|count [23] $end
$var wire 1 n$ inst3|count [22] $end
$var wire 1 o$ inst3|count [21] $end
$var wire 1 p$ inst3|count [20] $end
$var wire 1 q$ inst3|count [19] $end
$var wire 1 r$ inst3|count [18] $end
$var wire 1 s$ inst3|count [17] $end
$var wire 1 t$ inst3|count [16] $end
$var wire 1 u$ inst3|count [15] $end
$var wire 1 v$ inst3|count [14] $end
$var wire 1 w$ inst3|count [13] $end
$var wire 1 x$ inst3|count [12] $end
$var wire 1 y$ inst3|count [11] $end
$var wire 1 z$ inst3|count [10] $end
$var wire 1 {$ inst3|count [9] $end
$var wire 1 |$ inst3|count [8] $end
$var wire 1 }$ inst3|count [7] $end
$var wire 1 ~$ inst3|count [6] $end
$var wire 1 !% inst3|count [5] $end
$var wire 1 "% inst3|count [4] $end
$var wire 1 #% inst3|count [3] $end
$var wire 1 $% inst3|count [2] $end
$var wire 1 %% inst3|count [1] $end
$var wire 1 &% inst3|count [0] $end
$var wire 1 '% inst|Addr [3] $end
$var wire 1 (% inst|Addr [2] $end
$var wire 1 )% inst|Addr [1] $end
$var wire 1 *% inst|Addr [0] $end
$var wire 1 +% inst14|altsyncram_component|auto_generated|ram_block1a0_PORTADATAOUT_bus [15] $end
$var wire 1 ,% inst14|altsyncram_component|auto_generated|ram_block1a0_PORTADATAOUT_bus [14] $end
$var wire 1 -% inst14|altsyncram_component|auto_generated|ram_block1a0_PORTADATAOUT_bus [13] $end
$var wire 1 .% inst14|altsyncram_component|auto_generated|ram_block1a0_PORTADATAOUT_bus [12] $end
$var wire 1 /% inst14|altsyncram_component|auto_generated|ram_block1a0_PORTADATAOUT_bus [11] $end
$var wire 1 0% inst14|altsyncram_component|auto_generated|ram_block1a0_PORTADATAOUT_bus [10] $end
$var wire 1 1% inst14|altsyncram_component|auto_generated|ram_block1a0_PORTADATAOUT_bus [9] $end
$var wire 1 2% inst14|altsyncram_component|auto_generated|ram_block1a0_PORTADATAOUT_bus [8] $end
$var wire 1 3% inst14|altsyncram_component|auto_generated|ram_block1a0_PORTADATAOUT_bus [7] $end
$var wire 1 4% inst14|altsyncram_component|auto_generated|ram_block1a0_PORTADATAOUT_bus [6] $end
$var wire 1 5% inst14|altsyncram_component|auto_generated|ram_block1a0_PORTADATAOUT_bus [5] $end
$var wire 1 6% inst14|altsyncram_component|auto_generated|ram_block1a0_PORTADATAOUT_bus [4] $end
$var wire 1 7% inst14|altsyncram_component|auto_generated|ram_block1a0_PORTADATAOUT_bus [3] $end
$var wire 1 8% inst14|altsyncram_component|auto_generated|ram_block1a0_PORTADATAOUT_bus [2] $end
$var wire 1 9% inst14|altsyncram_component|auto_generated|ram_block1a0_PORTADATAOUT_bus [1] $end
$var wire 1 :% inst14|altsyncram_component|auto_generated|ram_block1a0_PORTADATAOUT_bus [0] $end
$upscope $end
$upscope $end
$enddefinitions $end
#0
$dumpvars
b11 !
0"
0#
1$
0)
0(
0'
0&
1%
0*
0+
1,
0<
0;
0:
09
08
07
06
05
04
03
02
01
00
0/
0.
0-
x=
0>
0?
0@
xA
0B
1C
xD
1E
1F
1G
0H
0I
0J
0K
0L
0M
1N
1O
0P
0Q
0R
1S
1T
0U
1V
0W
0X
1Y
1Z
0[
0\
0]
1^
0_
0`
0a
1b
0c
0d
1e
1f
1g
1h
1i
0j
1k
1l
0m
1n
0o
xp
0q
xr
xs
0t
xu
xv
0w
xx
xy
0z
x{
x|
0}
x~
x!!
0"!
x#!
x$!
0%!
x&!
x'!
0(!
x)!
x*!
0+!
x,!
x-!
0.!
x/!
x0!
01!
x2!
x3!
04!
x5!
x6!
x7!
x8!
x9!
x:!
x;!
x<!
x=!
x>!
x?!
0@!
0A!
1B!
0C!
0D!
1E!
0F!
0G!
1H!
0I!
1J!
0K!
0L!
1M!
0N!
0O!
1P!
0Q!
0R!
1S!
0T!
0U!
1V!
0W!
0X!
0Y!
1Z!
0[!
0\!
1]!
0^!
0_!
0`!
1a!
1b!
0c!
0d!
0e!
0f!
0g!
0h!
0i!
0j!
1k!
1l!
0m!
1n!
0o!
1p!
0q!
1r!
1s!
1t!
1u!
0v!
1w!
0x!
1y!
0z!
0{!
0|!
1}!
0~!
0!"
0""
0#"
1$"
0%"
0&"
1'"
1("
1)"
1*"
0+"
0,"
1-"
0."
0/"
00"
11"
02"
03"
14"
05"
06"
17"
08"
09"
1:"
0;"
0<"
1="
0>"
0?"
1@"
0A"
0B"
0C"
1D"
0E"
0F"
0G"
1H"
0I"
0J"
0K"
1L"
0M"
0N"
1O"
0P"
0Q"
1R"
0S"
0T"
0U"
0V"
0W"
0X"
0Y"
1Z"
0["
0\"
1]"
1^"
0_"
0`"
0a"
0b"
0c"
0d"
0e"
1f"
1g"
1h"
0i"
0j"
0k"
0l"
0m"
0n"
0o"
0p"
0q"
1r"
0s"
1t"
0u"
0v"
0w"
0x"
0y"
0z"
0{"
0|"
0}"
0~"
1!#
1"#
0##
0$#
1%#
0&#
0'#
1(#
0)#
0*#
0+#
0,#
0-#
1.#
0/#
00#
11#
02#
03#
14#
05#
06#
07#
18#
09#
0:#
0;#
1<#
0=#
1>#
0?#
0@#
0A#
1B#
0C#
0D#
1E#
0F#
0G#
1H#
0I#
0J#
1K#
0L#
0M#
1N#
0O#
0P#
0Q#
1R#
0S#
1T#
0U#
0V#
1W#
1X#
1Y#
1Z#
0[#
0\#
0]#
0^#
1_#
0`#
0a#
0b#
0c#
1d#
1e#
0f#
0g#
0h#
1i#
0j#
0k#
0l#
1m#
xn#
xo#
xp#
xq#
xr#
xs#
0t#
xu#
xv#
0w#
xx#
xy#
0z#
x{#
1}#
1|#
x/$
z.$
z-$
z,$
z+$
z*$
z)$
z($
z'$
z&$
z%$
z$$
z#$
z"$
z!$
z~#
0O$
0N$
0M$
0L$
0K$
0J$
0I$
0H$
0G$
0F$
0E$
0D$
0C$
0B$
0A$
0@$
0?$
0>$
0=$
0<$
0;$
0:$
09$
08$
07$
06$
05$
04$
03$
02$
01$
00$
0_$
0^$
0]$
0\$
0[$
0Z$
0Y$
0X$
0W$
0V$
0U$
0T$
0S$
0R$
0Q$
0P$
0d$
0c$
0b$
0a$
0`$
0&%
0%%
0$%
0#%
0"%
0!%
0~$
0}$
0|$
0{$
0z$
0y$
0x$
0w$
0v$
0u$
0t$
0s$
0r$
0q$
0p$
0o$
0n$
0m$
0l$
0k$
0j$
0i$
0h$
0g$
0f$
0e$
0*%
0)%
0(%
0'%
0:%
09%
08%
07%
06%
05%
04%
03%
02%
01%
00%
0/%
0.%
0-%
0,%
0+%
$end
#10000
1"
1}"
1~"
0A
1f#
1&%
1k"
1O$
1@!
1A!
1]#
0!#
1n"
1l"
1/"
0J!
1+
1*
0,
1^#
10"
1*%
xz#
xw#
xt#
x1!
x.!
x+!
x(!
x%!
x"!
x}
xz
xw
xt
xq
xo
1j#
0i#
1)
#10001
1:%
18%
16%
14%
12%
10%
1.%
1,%
1_$
1]$
1[$
1Y$
1W$
1U$
1S$
1Q$
1<
1:
18
16
14
12
10
1.
#20000
0"
0}"
0~"
1A
#30000
1"
1}"
1~"
0A
1%%
0&%
1N$
0O$
0_#
0^#
0]#
1!#
01"
00"
0/"
1J!
1`#
1_#
1^#
12"
11"
10"
0`#
02"
#30001
0:%
19%
08%
17%
06%
15%
04%
13%
02%
11%
00%
1/%
0.%
1-%
0,%
1+%
0_$
1^$
0]$
1\$
0[$
1Z$
0Y$
1X$
0W$
1V$
0U$
1T$
0S$
1R$
0Q$
1P$
0<
1;
0:
19
08
17
06
15
04
13
02
11
00
1/
0.
1-
#40000
0"
0}"
0~"
1A
#50000
1"
1}"
1~"
0A
1&%
1O$
1]#
0!#
1/"
0J!
0_#
0^#
01"
00"
1`#
12"
#60000
0"
0}"
0~"
1A
#70000
1"
1}"
1~"
0A
1$%
0%%
0&%
1M$
0N$
0O$
1a#
0`#
1_#
1^#
0]#
1!#
13"
02"
11"
10"
0/"
1J!
1b#
0a#
1`#
0^#
1&"
03"
12"
00"
0b#
0&"
#80000
0"
0}"
0~"
1A
