Digital_Circuit_Design/hw4/simulation/qsim/hw4.msim.vcd
$comment
	File created using the following command:
		vcd file hw4.msim.vcd -direction
$end
$date
	Mon Oct 28 02:05:12 2019
$end
$version
	ModelSim Version 10.1d
$end
$timescale
	1ps
$end
$scope module hw4_vlg_vec_tst $end
$var reg 2 ! DIPSW [1:0] $end
$var reg 1 " fin $end
$var reg 1 # reset $end
$var reg 1 $ select $end
$var wire 1 % CP $end
$var wire 1 & D $end
$var wire 1 ' str $end
$var wire 1 ( sampler $end
$scope module i1 $end
$var wire 1 ) gnd $end
$var wire 1 * vcc $end
$var wire 1 + unknown $end
$var tri1 1 , devclrn $end
$var tri1 1 - devpor $end
$var tri1 1 . devoe $end
$var wire 1 / inst4|count[11]~54_combout $end
$var wire 1 0 inst4|count[18]~68_combout $end
$var wire 1 1 inst4|count[21]~74_combout $end
$var wire 1 2 inst4|count[27]~86_combout $end
$var wire 1 3 inst4|count[29]~90_combout $end
$var wire 1 4 inst3|count[30]~93 $end
$var wire 1 5 inst3|count[31]~94_combout $end
$var wire 1 6 inst8|Mux0~2_combout $end
$var wire 1 7 inst8|Mux0~3_combout $end
$var wire 1 8 inst4|LessThan0~5_combout $end
$var wire 1 9 inst4|LessThan0~7_combout $end
$var wire 1 : inst4|LessThan0~8_combout $end
$var wire 1 ; inst7|count~2_combout $end
$var wire 1 < inst3|LessThan1~1_combout $end
$var wire 1 = inst3|LessThan1~4_combout $end
$var wire 1 > inst3|LessThan1~5_combout $end
$var wire 1 ? inst3|LessThan1~6_combout $end
$var wire 1 @ inst3|LessThan1~7_combout $end
$var wire 1 A inst3|LessThan1~24_combout $end
$var wire 1 B inst3|LessThan0~2_combout $end
$var wire 1 C inst3|LessThan0~8_combout $end
$var wire 1 D inst3|LessThan0~11_combout $end
$var wire 1 E inst3|LessThan0~12_combout $end
$var wire 1 F inst3|LessThan0~27_combout $end
$var wire 1 G inst3|fout~clkctrl_outclk $end
$var wire 1 H CP~output_o $end
$var wire 1 I D~output_o $end
$var wire 1 J str~output_o $end
$var wire 1 K fin~input_o $end
$var wire 1 L fin~inputclkctrl_outclk $end
$var wire 1 M reset~input_o $end
$var wire 1 N inst4|count[0]~32_combout $end
$var wire 1 O inst4|LessThan0~9_combout $end
$var wire 1 P inst4|count[14]~61 $end
$var wire 1 Q inst4|count[15]~63 $end
$var wire 1 R inst4|count[16]~64_combout $end
$var wire 1 S inst4|count[16]~65 $end
$var wire 1 T inst4|count[17]~66_combout $end
$var wire 1 U inst4|count[17]~67 $end
$var wire 1 V inst4|count[18]~69 $end
$var wire 1 W inst4|count[19]~71 $end
$var wire 1 X inst4|count[20]~72_combout $end
$var wire 1 Y inst4|count[20]~73 $end
$var wire 1 Z inst4|count[21]~75 $end
$var wire 1 [ inst4|count[22]~77 $end
$var wire 1 \ inst4|count[23]~78_combout $end
$var wire 1 ] inst4|count[23]~79 $end
$var wire 1 ^ inst4|count[24]~80_combout $end
$var wire 1 _ inst4|count[24]~81 $end
$var wire 1 ` inst4|count[25]~82_combout $end
$var wire 1 a inst4|count[25]~83 $end
$var wire 1 b inst4|count[26]~84_combout $end
$var wire 1 c inst4|LessThan0~4_combout $end
$var wire 1 d inst4|count[26]~85 $end
$var wire 1 e inst4|count[27]~87 $end
$var wire 1 f inst4|count[28]~88_combout $end
$var wire 1 g inst4|count[28]~89 $end
$var wire 1 h inst4|count[29]~91 $end
$var wire 1 i inst4|count[30]~92_combout $end
$var wire 1 j inst4|count[30]~93 $end
$var wire 1 k inst4|count[31]~94_combout $end
$var wire 1 l inst4|count[19]~70_combout $end
$var wire 1 m inst4|count[22]~76_combout $end
$var wire 1 n inst4|LessThan0~2_combout $end
$var wire 1 o inst4|count[15]~62_combout $end
$var wire 1 p inst4|LessThan0~1_combout $end
$var wire 1 q inst4|LessThan0~3_combout $end
$var wire 1 r inst4|LessThan0~6_combout $end
$var wire 1 s inst4|LessThan0~10_combout $end
$var wire 1 t inst4|count[0]~33 $end
$var wire 1 u inst4|count[1]~34_combout $end
$var wire 1 v inst4|count[1]~35 $end
$var wire 1 w inst4|count[2]~36_combout $end
$var wire 1 x inst4|count[2]~37 $end
$var wire 1 y inst4|count[3]~39 $end
$var wire 1 z inst4|count[4]~40_combout $end
$var wire 1 { inst4|count[4]~41 $end
$var wire 1 | inst4|count[5]~43 $end
$var wire 1 } inst4|count[6]~45 $end
$var wire 1 ~ inst4|count[7]~46_combout $end
$var wire 1 !! inst4|count[7]~47 $end
$var wire 1 "! inst4|count[8]~48_combout $end
$var wire 1 #! inst4|count[8]~49 $end
$var wire 1 $! inst4|count[9]~50_combout $end
$var wire 1 %! inst4|count[9]~51 $end
$var wire 1 &! inst4|count[10]~52_combout $end
$var wire 1 '! inst4|count[10]~53 $end
$var wire 1 (! inst4|count[11]~55 $end
$var wire 1 )! inst4|count[12]~56_combout $end
$var wire 1 *! inst4|count[12]~57 $end
$var wire 1 +! inst4|count[13]~59 $end
$var wire 1 ,! inst4|count[14]~60_combout $end
$var wire 1 -! inst4|count[13]~58_combout $end
$var wire 1 .! inst4|LessThan1~0_combout $end
$var wire 1 /! inst4|count[6]~44_combout $end
$var wire 1 0! inst4|count[5]~42_combout $end
$var wire 1 1! inst4|LessThan0~0_combout $end
$var wire 1 2! inst4|count[3]~38_combout $end
$var wire 1 3! inst4|LessThan1~1_combout $end
$var wire 1 4! inst4|LessThan1~2_combout $end
$var wire 1 5! inst4|LessThan1~3_combout $end
$var wire 1 6! inst4|LessThan1~4_combout $end
$var wire 1 7! inst4|_fout~q $end
$var wire 1 8! inst4|fout~0_combout $end
$var wire 1 9! inst4|fout~q $end
$var wire 1 :! inst6|Selector0~0_combout $end
$var wire 1 ;! inst6|cs.00~q $end
$var wire 1 <! inst3|count[0]~32_combout $end
$var wire 1 =! inst3|count[24]~81 $end
$var wire 1 >! inst3|count[25]~82_combout $end
$var wire 1 ?! inst3|count[25]~83 $end
$var wire 1 @! inst3|count[26]~84_combout $end
$var wire 1 A! inst3|count[26]~85 $end
$var wire 1 B! inst3|count[27]~87 $end
$var wire 1 C! inst3|count[28]~88_combout $end
$var wire 1 D! inst3|count[28]~89 $end
$var wire 1 E! inst3|count[29]~90_combout $end
$var wire 1 F! inst3|count[29]~91 $end
$var wire 1 G! inst3|count[30]~92_combout $end
$var wire 1 H! inst3|count[27]~86_combout $end
$var wire 1 I! inst3|LessThan0~0_combout $end
$var wire 1 J! inst3|LessThan0~1_combout $end
$var wire 1 K! DIPSW[0]~input_o $end
$var wire 1 L! inst3|LessThan0~30_combout $end
$var wire 1 M! DIPSW[1]~input_o $end
$var wire 1 N! inst3|count[21]~74_combout $end
$var wire 1 O! inst3|LessThan0~9_combout $end
$var wire 1 P! inst3|count[19]~70_combout $end
$var wire 1 Q! inst3|LessThan0~6_combout $end
$var wire 1 R! inst3|LessThan0~7_combout $end
$var wire 1 S! inst3|LessThan0~4_combout $end
$var wire 1 T! inst3|LessThan0~3_combout $end
$var wire 1 U! inst3|LessThan0~5_combout $end
$var wire 1 V! inst3|LessThan0~10_combout $end
$var wire 1 W! inst3|count[13]~58_combout $end
$var wire 1 X! inst3|LessThan0~13_combout $end
$var wire 1 Y! inst3|LessThan0~25_combout $end
$var wire 1 Z! inst3|LessThan0~24_combout $end
$var wire 1 [! inst3|LessThan0~26_combout $end
$var wire 1 \! inst3|count[15]~62_combout $end
$var wire 1 ]! inst3|LessThan0~14_combout $end
$var wire 1 ^! inst3|LessThan0~15_combout $end
$var wire 1 _! inst3|LessThan0~23_combout $end
$var wire 1 `! inst3|LessThan0~28_combout $end
$var wire 1 a! inst3|LessThan0~20_combout $end
$var wire 1 b! inst3|LessThan0~17_combout $end
$var wire 1 c! inst3|count[3]~38_combout $end
$var wire 1 d! inst3|count[1]~34_combout $end
$var wire 1 e! inst3|LessThan0~18_combout $end
$var wire 1 f! inst3|LessThan0~19_combout $end
$var wire 1 g! inst3|LessThan0~21_combout $end
$var wire 1 h! inst3|LessThan0~16_combout $end
$var wire 1 i! inst3|LessThan0~22_combout $end
$var wire 1 j! inst3|LessThan0~29_combout $end
$var wire 1 k! inst3|LessThan0~31_combout $end
$var wire 1 l! inst3|count[0]~33 $end
$var wire 1 m! inst3|count[1]~35 $end
$var wire 1 n! inst3|count[2]~36_combout $end
$var wire 1 o! inst3|count[2]~37 $end
$var wire 1 p! inst3|count[3]~39 $end
$var wire 1 q! inst3|count[4]~40_combout $end
$var wire 1 r! inst3|count[4]~41 $end
$var wire 1 s! inst3|count[5]~43 $end
$var wire 1 t! inst3|count[6]~45 $end
$var wire 1 u! inst3|count[7]~46_combout $end
$var wire 1 v! inst3|count[7]~47 $end
$var wire 1 w! inst3|count[8]~48_combout $end
$var wire 1 x! inst3|count[8]~49 $end
$var wire 1 y! inst3|count[9]~50_combout $end
$var wire 1 z! inst3|count[9]~51 $end
$var wire 1 {! inst3|count[10]~52_combout $end
$var wire 1 |! inst3|count[10]~53 $end
$var wire 1 }! inst3|count[11]~55 $end
$var wire 1 ~! inst3|count[12]~56_combout $end
$var wire 1 !" inst3|count[12]~57 $end
$var wire 1 "" inst3|count[13]~59 $end
$var wire 1 #" inst3|count[14]~60_combout $end
$var wire 1 $" inst3|count[14]~61 $end
$var wire 1 %" inst3|count[15]~63 $end
$var wire 1 &" inst3|count[16]~64_combout $end
$var wire 1 '" inst3|count[16]~65 $end
$var wire 1 (" inst3|count[17]~66_combout $end
$var wire 1 )" inst3|count[17]~67 $end
$var wire 1 *" inst3|count[18]~68_combout $end
$var wire 1 +" inst3|count[18]~69 $end
$var wire 1 ," inst3|count[19]~71 $end
$var wire 1 -" inst3|count[20]~72_combout $end
$var wire 1 ." inst3|count[20]~73 $end
$var wire 1 /" inst3|count[21]~75 $end
$var wire 1 0" inst3|count[22]~77 $end
$var wire 1 1" inst3|count[23]~78_combout $end
$var wire 1 2" inst3|count[23]~79 $end
$var wire 1 3" inst3|count[24]~80_combout $end
$var wire 1 4" inst3|count[22]~76_combout $end
$var wire 1 5" inst3|LessThan1~2_combout $end
$var wire 1 6" inst|Decoder0~0_combout $end
$var wire 1 7" inst3|LessThan1~0_combout $end
$var wire 1 8" inst3|LessThan1~3_combout $end
$var wire 1 9" inst3|count[11]~54_combout $end
$var wire 1 :" inst3|LessThan1~8_combout $end
$var wire 1 ;" inst3|LessThan1~9_combout $end
$var wire 1 <" inst3|LessThan1~10_combout $end
$var wire 1 =" inst3|LessThan1~11_combout $end
$var wire 1 >" inst3|LessThan1~16_combout $end
$var wire 1 ?" inst3|LessThan1~17_combout $end
$var wire 1 @" inst|Decoder0~1_combout $end
$var wire 1 A" inst3|LessThan1~12_combout $end
$var wire 1 B" inst3|LessThan1~13_combout $end
$var wire 1 C" inst3|LessThan1~14_combout $end
$var wire 1 D" inst3|LessThan1~15_combout $end
$var wire 1 E" inst3|LessThan1~18_combout $end
$var wire 1 F" inst3|LessThan1~19_combout $end
$var wire 1 G" inst3|LessThan1~20_combout $end
$var wire 1 H" inst3|count[6]~44_combout $end
$var wire 1 I" inst3|LessThan1~21_combout $end
$var wire 1 J" inst3|count[5]~42_combout $end
$var wire 1 K" inst3|LessThan1~25_combout $end
$var wire 1 L" inst3|LessThan1~22_combout $end
$var wire 1 M" inst3|LessThan1~23_combout $end
$var wire 1 N" inst3|LessThan1~26_combout $end
$var wire 1 O" inst3|LessThan1~30_combout $end
$var wire 1 P" inst3|LessThan1~31_combout $end
$var wire 1 Q" inst3|LessThan1~27_combout $end
$var wire 1 R" inst3|LessThan1~28_combout $end
$var wire 1 S" inst3|LessThan1~29_combout $end
$var wire 1 T" inst3|_fout~q $end
$var wire 1 U" inst3|fout~0_combout $end
$var wire 1 V" inst3|fout~q $end
$var wire 1 W" inst6|ns.01~0_combout $end
$var wire 1 X" inst6|cs.01~feeder_combout $end
$var wire 1 Y" inst6|cs.01~q $end
$var wire 1 Z" inst6|cs.01~clkctrl_outclk $end
$var wire 1 [" ~GND~combout $end
$var wire 1 \" inst5|Addr[0]~3_combout $end
$var wire 1 ]" reset~inputclkctrl_outclk $end
$var wire 1 ^" inst5|Addr[1]~0_combout $end
$var wire 1 _" inst5|Addr[2]~1_combout $end
$var wire 1 `" inst5|Addr[3]~2_combout $end
$var wire 1 a" select~input_o $end
$var wire 1 b" inst8|count[0]~3_combout $end
$var wire 1 c" inst8|count[1]~2_combout $end
$var wire 1 d" inst8|count[2]~0_combout $end
$var wire 1 e" inst8|count[3]~1_combout $end
$var wire 1 f" inst8|Mux0~0_combout $end
$var wire 1 g" inst8|Mux0~1_combout $end
$var wire 1 h" inst8|Mux0~7_combout $end
$var wire 1 i" inst8|Mux0~8_combout $end
$var wire 1 j" inst8|Mux0~4_combout $end
$var wire 1 k" inst8|Mux0~5_combout $end
$var wire 1 l" inst8|Mux0~6_combout $end
$var wire 1 m" inst8|Mux0~9_combout $end
$var wire 1 n" inst4|fout~clkctrl_outclk $end
$var wire 1 o" inst7|Selector0~0_combout $end
$var wire 1 p" inst7|cs.00~feeder_combout $end
$var wire 1 q" inst7|cs.00~q $end
$var wire 1 r" inst7|ns.01~0_combout $end
$var wire 1 s" inst7|cs.01~feeder_combout $end
$var wire 1 t" inst7|cs.01~q $end
$var wire 1 u" inst7|count~4_combout $end
$var wire 1 v" inst7|count~3_combout $end
$var wire 1 w" inst7|Add0~0_combout $end
$var wire 1 x" inst7|count~1_combout $end
$var wire 1 y" inst7|ns.11~0_combout $end
$var wire 1 z" inst7|Selector1~0_combout $end
$var wire 1 {" inst7|cs.10~q $end
$var wire 1 |" inst7|ns.11~1_combout $end
$var wire 1 }" inst7|cs.11~q $end
$var wire 1 ~" inst7|str~q $end
$var wire 1 !# inst5|Addr [3] $end
$var wire 1 "# inst5|Addr [2] $end
$var wire 1 ## inst5|Addr [1] $end
$var wire 1 $# inst5|Addr [0] $end
$var wire 1 %# inst1|altsyncram_component|auto_generated|q_a [15] $end
$var wire 1 &# inst1|altsyncram_component|auto_generated|q_a [14] $end
$var wire 1 '# inst1|altsyncram_component|auto_generated|q_a [13] $end
$var wire 1 (# inst1|altsyncram_component|auto_generated|q_a [12] $end
$var wire 1 )# inst1|altsyncram_component|auto_generated|q_a [11] $end
$var wire 1 *# inst1|altsyncram_component|auto_generated|q_a [10] $end
$var wire 1 +# inst1|altsyncram_component|auto_generated|q_a [9] $end
$var wire 1 ,# inst1|altsyncram_component|auto_generated|q_a [8] $end
$var wire 1 -# inst1|altsyncram_component|auto_generated|q_a [7] $end
$var wire 1 .# inst1|altsyncram_component|auto_generated|q_a [6] $end
$var wire 1 /# inst1|altsyncram_component|auto_generated|q_a [5] $end
$var wire 1 0# inst1|altsyncram_component|auto_generated|q_a [4] $end
$var wire 1 1# inst1|altsyncram_component|auto_generated|q_a [3] $end
$var wire 1 2# inst1|altsyncram_component|auto_generated|q_a [2] $end
$var wire 1 3# inst1|altsyncram_component|auto_generated|q_a [1] $end
$var wire 1 4# inst1|altsyncram_component|auto_generated|q_a [0] $end
$var wire 1 5# inst7|count [3] $end
$var wire 1 6# inst7|count [2] $end
$var wire 1 7# inst7|count [1] $end
$var wire 1 8# inst7|count [0] $end
$var wire 1 9# inst3|count [31] $end
$var wire 1 :# inst3|count [30] $end
$var wire 1 ;# inst3|count [29] $end
$var wire 1 <# inst3|count [28] $end
$var wire 1 =# inst3|count [27] $end
$var wire 1 ># inst3|count [26] $end
$var wire 1 ?# inst3|count [25] $end
$var wire 1 @# inst3|count [24] $end
$var wire 1 A# inst3|count [23] $end
$var wire 1 B# inst3|count [22] $end
$var wire 1 C# inst3|count [21] $end
$var wire 1 D# inst3|count [20] $end
$var wire 1 E# inst3|count [19] $end
$var wire 1 F# inst3|count [18] $end
$var wire 1 G# inst3|count [17] $end
$var wire 1 H# inst3|count [16] $end
$var wire 1 I# inst3|count [15] $end
$var wire 1 J# inst3|count [14] $end
$var wire 1 K# inst3|count [13] $end
$var wire 1 L# inst3|count [12] $end
$var wire 1 M# inst3|count [11] $end
$var wire 1 N# inst3|count [10] $end
$var wire 1 O# inst3|count [9] $end
$var wire 1 P# inst3|count [8] $end
$var wire 1 Q# inst3|count [7] $end
$var wire 1 R# inst3|count [6] $end
$var wire 1 S# inst3|count [5] $end
$var wire 1 T# inst3|count [4] $end
$var wire 1 U# inst3|count [3] $end
$var wire 1 V# inst3|count [2] $end
$var wire 1 W# inst3|count [1] $end
$var wire 1 X# inst3|count [0] $end
$var wire 1 Y# inst8|count [3] $end
$var wire 1 Z# inst8|count [2] $end
$var wire 1 [# inst8|count [1] $end
$var wire 1 \# inst8|count [0] $end
$var wire 1 ]# inst8|r [15] $end
$var wire 1 ^# inst8|r [14] $end
$var wire 1 _# inst8|r [13] $end
$var wire 1 `# inst8|r [12] $end
$var wire 1 a# inst8|r [11] $end
$var wire 1 b# inst8|r [10] $end
$var wire 1 c# inst8|r [9] $end
$var wire 1 d# inst8|r [8] $end
$var wire 1 e# inst8|r [7] $end
$var wire 1 f# inst8|r [6] $end
$var wire 1 g# inst8|r [5] $end
$var wire 1 h# inst8|r [4] $end
$var wire 1 i# inst8|r [3] $end
$var wire 1 j# inst8|r [2] $end
$var wire 1 k# inst8|r [1] $end
$var wire 1 l# inst8|r [0] $end
$var wire 1 m# inst4|count [31] $end
$var wire 1 n# inst4|count [30] $end
$var wire 1 o# inst4|count [29] $end
$var wire 1 p# inst4|count [28] $end
$var wire 1 q# inst4|count [27] $end
$var wire 1 r# inst4|count [26] $end
$var wire 1 s# inst4|count [25] $end
$var wire 1 t# inst4|count [24] $end
$var wire 1 u# inst4|count [23] $end
$var wire 1 v# inst4|count [22] $end
$var wire 1 w# inst4|count [21] $end
$var wire 1 x# inst4|count [20] $end
$var wire 1 y# inst4|count [19] $end
$var wire 1 z# inst4|count [18] $end
$var wire 1 {# inst4|count [17] $end
$var wire 1 |# inst4|count [16] $end
$var wire 1 }# inst4|count [15] $end
$var wire 1 ~# inst4|count [14] $end
$var wire 1 !$ inst4|count [13] $end
$var wire 1 "$ inst4|count [12] $end
$var wire 1 #$ inst4|count [11] $end
$var wire 1 $$ inst4|count [10] $end
$var wire 1 %$ inst4|count [9] $end
$var wire 1 &$ inst4|count [8] $end
$var wire 1 '$ inst4|count [7] $end
$var wire 1 ($ inst4|count [6] $end
$var wire 1 )$ inst4|count [5] $end
$var wire 1 *$ inst4|count [4] $end
$var wire 1 +$ inst4|count [3] $end
$var wire 1 ,$ inst4|count [2] $end
$var wire 1 -$ inst4|count [1] $end
$var wire 1 .$ inst4|count [0] $end
$var wire 1 /$ inst1|altsyncram_component|auto_generated|ram_block1a0_PORTADATAOUT_bus [17] $end
$var wire 1 0$ inst1|altsyncram_component|auto_generated|ram_block1a0_PORTADATAOUT_bus [16] $end
$var wire 1 1$ inst1|altsyncram_component|auto_generated|ram_block1a0_PORTADATAOUT_bus [15] $end
$var wire 1 2$ inst1|altsyncram_component|auto_generated|ram_block1a0_PORTADATAOUT_bus [14] $end
$var wire 1 3$ inst1|altsyncram_component|auto_generated|ram_block1a0_PORTADATAOUT_bus [13] $end
$var wire 1 4$ inst1|altsyncram_component|auto_generated|ram_block1a0_PORTADATAOUT_bus [12] $end
$var wire 1 5$ inst1|altsyncram_component|auto_generated|ram_block1a0_PORTADATAOUT_bus [11] $end
$var wire 1 6$ inst1|altsyncram_component|auto_generated|ram_block1a0_PORTADATAOUT_bus [10] $end
$var wire 1 7$ inst1|altsyncram_component|auto_generated|ram_block1a0_PORTADATAOUT_bus [9] $end
$var wire 1 8$ inst1|altsyncram_component|auto_generated|ram_block1a0_PORTADATAOUT_bus [8] $end
$var wire 1 9$ inst1|altsyncram_component|auto_generated|ram_block1a0_PORTADATAOUT_bus [7] $end
$var wire 1 :$ inst1|altsyncram_component|auto_generated|ram_block1a0_PORTADATAOUT_bus [6] $end
$var wire 1 ;$ inst1|altsyncram_component|auto_generated|ram_block1a0_PORTADATAOUT_bus [5] $end
$var wire 1 <$ inst1|altsyncram_component|auto_generated|ram_block1a0_PORTADATAOUT_bus [4] $end
$var wire 1 =$ inst1|altsyncram_component|auto_generated|ram_block1a0_PORTADATAOUT_bus [3] $end
$var wire 1 >$ inst1|altsyncram_component|auto_generated|ram_block1a0_PORTADATAOUT_bus [2] $end
$var wire 1 ?$ inst1|altsyncram_component|auto_generated|ram_block1a0_PORTADATAOUT_bus [1] $end
$var wire 1 @$ inst1|altsyncram_component|auto_generated|ram_block1a0_PORTADATAOUT_bus [0] $end
$upscope $end
$upscope $end
$enddefinitions $end
#0
$dumpvars
b0 !
0"
0#
0$
1%
x&
0'
x(
0)
1*
x+
1,
1-
1.
0/
00
01
02
03
04
05
x6
x7
18
19
1:
0;
0<
0=
0>
0?
0@
0A
1B
0C
0D
0E
0F
0G
1H
xI
0J
0K
0L
0M
1N
1O
0P
1Q
0R
0S
0T
1U
0V
1W
0X
0Y
1Z
0[
0\
1]
0^
0_
0`
1a
0b
1c
0d
1e
0f
0g
1h
0i
0j
0k
0l
0m
1n
0o
1p
1q
1r
0s
0t
0u
1v
0w
0x
1y
0z
0{
1|
0}
0~
1!!
0"!
0#!
0$!
1%!
0&!
0'!
1(!
0)!
0*!
1+!
0,!
0-!
0.!
0/!
00!
11!
02!
03!
04!
05!
16!
07!
08!
09!
0:!
0;!
1<!
0=!
0>!
1?!
0@!
0A!
1B!
0C!
0D!
0E!
1F!
0G!
0H!
1I!
1J!
0K!
0L!
0M!
0N!
0O!
0P!
0Q!
0R!
0S!
0T!
1U!
1V!
0W!
0X!
1Y!
1Z!
1[!
0\!
0]!
0^!
0_!
1`!
1a!
1b!
0c!
0d!
1e!
1f!
1g!
0h!
0i!
1j!
0k!
0l!
1m!
0n!
0o!
1p!
0q!
0r!
1s!
0t!
0u!
1v!
0w!
0x!
0y!
1z!
0{!
0|!
1}!
0~!
0!"
1""
0#"
0$"
1%"
0&"
0'"
0("
1)"
0*"
0+"
1,"
0-"
0."
1/"
00"
01"
12"
03"
04"
05"
06"
07"
08"
09"
0:"
0;"
0<"
0="
0>"
0?"
0@"
0A"
0B"
0C"
0D"
0E"
0F"
0G"
0H"
0I"
0J"
0K"
0L"
0M"
0N"
0O"
0P"
0Q"
0R"
1S"
0T"
0U"
0V"
0W"
0X"
0Y"
0Z"
0["
1\"
0]"
0^"
0_"
0`"
0a"
1b"
0c"
0d"
0e"
xf"
xg"
xh"
xi"
xj"
xk"
xl"
xm"
0n"
0o"
0p"
0q"
0r"
0s"
0t"
0u"
0v"
0w"
0x"
0y"
0z"
0{"
0|"
0}"
0~"
0$#
0##
0"#
0!#
04#
03#
02#
01#
00#
0/#
0.#
0-#
0,#
0+#
0*#
0)#
0(#
0'#
0&#
0%#
08#
07#
06#
05#
0X#
0W#
0V#
0U#
0T#
0S#
0R#
0Q#
0P#
0O#
0N#
0M#
0L#
0K#
0J#
0I#
0H#
0G#
0F#
0E#
0D#
0C#
0B#
0A#
0@#
0?#
0>#
0=#
0<#
0;#
0:#
09#
0\#
0[#
0Z#
0Y#
xl#
xk#
xj#
xi#
xh#
xg#
xf#
xe#
xd#
xc#
xb#
xa#
x`#
x_#
x^#
x]#
0.$
0-$
0,$
0+$
0*$
0)$
0($
0'$
0&$
0%$
0$$
0#$
0"$
0!$
0~#
0}#
0|#
0{#
0z#
0y#
0x#
0w#
0v#
0u#
0t#
0s#
0r#
0q#
0p#
0o#
0n#
0m#
0@$
0?$
0>$
0=$
0<$
0;$
0:$
09$
08$
07$
06$
05$
04$
03$
02$
01$
00$
0/$
$end
#10000
1"
1K
1L
0(
1X#
1.$
1L"
1l!
0<!
13!
1t
0N
1M"
1d!
1u
#20000
0"
0K
0L
1(
17!
1T"
18!
1U"
#30000
1"
1K
1L
0(
1V"
0X#
1W#
19!
1-$
0.$
1G
1n"
1W"
1:!
0l!
1<!
0m!
0d!
0v
0u
0t
1N
0H
0%
1X"
1m!
1d!
1n!
1w
1v
1u
0n!
0w
1$#
1\#
1^"
0\"
1c"
0b"
#40000
0"
0K
0L
1(
#50000
1"
1K
1L
0(
1X#
1.$
1l!
0<!
1t
0N
0m!
0d!
0v
0u
1n!
1w
#60000
0"
0K
0L
1(
#70000
1"
1K
1L
0(
1V#
0X#
0W#
1,$
0-$
0.$
1o!
0n!
0l!
1<!
1m!
1d!
1x
0w
1v
1u
0t
1N
1c!
0d!
0o!
1n!
12!
0x
1w
0u
0c!
02!
#80000
0"
0K
0L
1(
#90000
1"
1K
1L
0(
1X#
1.$
0e!
1l!
0<!
1t
0N
1d!
1u
#100000
0"
0K
0L
1(
#110000
1"
1K
1L
0(
0X#
1W#
1-$
0.$
0l!
1<!
0m!
0d!
0v
0u
0t
1N
1m!
1d!
1o!
0n!
1x
0w
1v
1u
0o!
1n!
1c!
12!
0x
1w
0c!
02!
#120000
0"
0K
0L
1(
#130000
1"
1K
1L
0(
1X#
1.$
1l!
0<!
1t
0N
0m!
0d!
0v
0u
1o!
0n!
1x
0w
1c!
12!
#140000
0"
0K
0L
1(
#150000
1"
1K
1L
0(
0V#
0X#
0W#
1U#
1+$
0,$
0-$
0.$
0L"
0o!
1n!
1e!
0l!
1<!
1m!
1d!
0p!
0c!
0y
02!
0x
1w
1v
1u
0t
1N
1p!
1c!
0d!
0n!
1q!
1z
1y
12!
0w
0u
0q!
0z
#160000
0"
0K
0L
1(
#170000
1"
1K
1L
0(
1X#
1.$
1L"
1l!
0<!
1t
0N
1d!
1u
#180000
0"
0K
0L
1(
#190000
1"
1K
1L
0(
0X#
1W#
1-$
0.$
0l!
1<!
0m!
0d!
0v
0u
0t
1N
1m!
1d!
1n!
1w
1v
1u
0n!
0w
#200000
0"
0K
0L
1(
#210000
1"
1K
1L
0(
1X#
1.$
1l!
0<!
1t
0N
0m!
0d!
0v
0u
1n!
1w
#220000
0"
0K
0L
1(
#230000
1"
1K
1L
0(
1V#
0X#
0W#
1,$
0-$
0.$
1o!
0n!
0l!
1<!
1m!
1d!
1x
0w
1v
1u
0t
1N
0p!
0c!
0d!
0o!
1n!
0y
02!
0x
1w
0u
1q!
1p!
1c!
1z
1y
12!
0q!
0z
#240000
0"
0K
0L
1(
#250000
1"
1K
1L
0(
1X#
1.$
0e!
1l!
0<!
1t
0N
1d!
1u
#260000
0"
0K
0L
1(
#270000
1"
1K
1L
0(
0X#
1W#
1-$
0.$
0l!
1<!
0m!
0d!
0v
0u
0t
1N
1m!
1d!
1o!
0n!
1x
0w
1v
1u
0o!
1n!
0p!
0c!
0y
02!
0x
1w
1p!
1c!
1q!
1z
1y
12!
0q!
0z
#280000
0"
0K
0L
1(
#290000
1"
1K
1L
0(
1X#
1.$
1l!
0<!
1t
0N
0m!
0d!
0v
0u
1o!
0n!
1x
0w
0p!
0c!
0y
02!
1q!
1z
#300000
0"
0K
0L
1(
#310000
1"
1K
1L
0(
1T#
0V#
0X#
0W#
0U#
0+$
1*$
0,$
0-$
0.$
1r!
0q!
0L"
0o!
1n!
1e!
0l!
1<!
1m!
1d!
1p!
1c!
03!
1y
12!
1{
0z
0x
1w
1v
1u
0t
1N
1J"
0M"
0c!
0d!
0n!
0r!
1q!
0{
1z
10!
02!
0w
0u
0J"
00!
#320000
0"
0K
0L
1(
#330000
1"
1K
1L
0(
1X#
1.$
1L"
1l!
0<!
13!
1t
0N
1M"
1d!
1u
#340000
0"
0K
0L
1(
#350000
1"
1K
1L
0(
0X#
1W#
1-$
0.$
0l!
1<!
0m!
0d!
0v
0u
0t
1N
1m!
1d!
1n!
1w
1v
1u
0n!
0w
#360000
0"
0K
0L
1(
#370000
1"
1K
1L
0(
1X#
1.$
1l!
0<!
1t
0N
0m!
0d!
0v
0u
1n!
1w
#380000
0"
0K
0L
1(
#390000
1"
1K
1L
0(
1V#
0X#
0W#
1,$
0-$
0.$
1o!
0n!
0l!
1<!
1m!
1d!
1x
0w
1v
1u
0t
1N
1c!
0d!
0o!
1n!
12!
0x
1w
0u
0c!
02!
#400000
0"
0K
0L
1(
#410000
1"
1K
1L
0(
1X#
1.$
0e!
1l!
0<!
1t
0N
1d!
1u
#420000
0"
0K
0L
1(
#430000
1"
1K
1L
0(
0X#
1W#
1-$
0.$
0l!
1<!
0m!
0d!
0v
0u
0t
1N
1m!
1d!
1o!
0n!
1x
0w
1v
1u
0o!
1n!
1c!
12!
0x
1w
0c!
02!
#440000
0"
0K
0L
1(
#450000
1"
1K
1L
0(
1X#
1.$
1l!
0<!
1t
0N
0m!
0d!
0v
0u
1o!
0n!
1x
0w
1c!
12!
#460000
0"
0K
0L
1(
#470000
1"
1K
1L
0(
0V#
0X#
0W#
1U#
1+$
0,$
0-$
0.$
0L"
0o!
1n!
1e!
0l!
1<!
1m!
1d!
0p!
0c!
0y
02!
0x
1w
1v
1u
0t
1N
1p!
1c!
0d!
0n!
1r!
0q!
1{
0z
1y
12!
0w
0u
0r!
1q!
1J"
10!
0{
1z
0J"
00!
#480000
0"
0K
0L
1(
#490000
1"
1K
1L
0(
1X#
1.$
1L"
1l!
0<!
1t
0N
1d!
1u
#500000
0"
0K
0L
1(
#510000
1"
1K
1L
0(
0X#
1W#
1-$
0.$
0l!
1<!
0m!
0d!
0v
0u
0t
1N
1m!
1d!
1n!
1w
1v
1u
0n!
0w
#520000
0"
0K
0L
1(
#530000
1"
1K
1L
0(
1X#
1.$
1l!
0<!
1t
0N
0m!
0d!
0v
0u
1n!
1w
#540000
0"
0K
0L
1(
#550000
1"
1K
1L
0(
1V#
0X#
0W#
1,$
0-$
0.$
1o!
0n!
0l!
1<!
1m!
1d!
1x
0w
1v
1u
0t
1N
0p!
0c!
0d!
0o!
1n!
0y
02!
0x
1w
0u
1r!
0q!
1p!
1c!
1{
0z
1y
12!
1J"
0r!
1q!
10!
0{
1z
0J"
00!
#560000
0"
0K
0L
1(
