Digital_Circuit_Design/hw7/simulation/qsim/hw7.msim.vcd
$comment
	File created using the following command:
		vcd file hw7.msim.vcd -direction
$end
$date
	Sun Dec 22 00:41:51 2019
$end
$version
	ModelSim Version 10.1d
$end
$timescale
	1ps
$end
$scope module TPC_vlg_vec_tst $end
$var reg 1 ! clk $end
$var wire 1 " gx $end
$var wire 1 # gy $end
$var wire 1 $ xa $end
$var wire 1 % xen $end
$var wire 1 & ya $end
$var wire 1 ' yen $end
$var wire 1 ( sampler $end
$scope module i1 $end
$var wire 1 ) gnd $end
$var wire 1 * vcc $end
$var wire 1 + unknown $end
$var tri1 1 , devclrn $end
$var tri1 1 - devpor $end
$var tri1 1 . devoe $end
$var wire 1 / clk~combout $end
$var wire 1 0 clk~clkctrl_outclk $end
$var wire 1 1 cs.001~0_combout $end
$var wire 1 2 cs.001~regout $end
$var wire 1 3 cs.010~feeder_combout $end
$var wire 1 4 cs.010~regout $end
$var wire 1 5 cs.011~feeder_combout $end
$var wire 1 6 cs.011~regout $end
$var wire 1 7 cs.100~regout $end
$var wire 1 8 cs.101~feeder_combout $end
$var wire 1 9 cs.101~regout $end
$var wire 1 : cs.110~feeder_combout $end
$var wire 1 ; cs.110~regout $end
$var wire 1 < cs.111~feeder_combout $end
$var wire 1 = cs.111~regout $end
$var wire 1 > cs.000~0_combout $end
$var wire 1 ? cs.000~regout $end
$var wire 1 @ WideOr0~0_combout $end
$var wire 1 A WideOr0~1_combout $end
$var wire 1 B TPctr~1_combout $end
$upscope $end
$upscope $end
$enddefinitions $end
#0
$dumpvars
0!
0"
1#
0$
0%
0&
0'
x(
0)
1*
x+
1,
1-
1.
0/
00
11
02
03
04
05
06
07
08
09
0:
0;
0<
0=
1>
0?
1@
1A
0B
$end
#10000
1!
1/
10
0(
1?
12
01
0A
13
1%
1$
#20000
0!
0/
00
1(
#30000
1!
1/
10
0(
14
02
15
03
0%
#40000
0!
0/
00
1(
#50000
1!
1/
10
0(
16
04
1A
05
0$
#60000
0!
0/
00
1(
#70000
1!
1/
10
0(
17
06
18
0@
0#
1"
#80000
0!
0/
00
1(
#90000
1!
1/
10
0(
19
07
1B
1:
08
1'
1&
#100000
0!
0/
00
1(
#110000
1!
1/
10
0(
1;
09
1<
0:
0'
#120000
0!
0/
00
1(
#130000
1!
1/
10
0(
1=
0;
0>
0B
0<
0&
#140000
0!
0/
00
1(
#150000
1!
1/
10
0(
0?
0=
1@
11
1>
1#
0"
#160000
0!
0/
00
1(
#170000
1!
1/
10
0(
1?
12
01
0A
13
1%
1$
#180000
0!
0/
00
1(
#190000
1!
1/
10
0(
14
02
15
03
0%
#200000
0!
0/
00
1(
#210000
1!
1/
10
0(
16
04
1A
05
0$
#220000
0!
0/
00
1(
#230000
1!
1/
10
0(
17
06
18
0@
0#
1"
#240000
0!
0/
00
1(
#250000
1!
1/
10
0(
19
07
1B
1:
08
1'
1&
#260000
0!
0/
00
1(
#270000
1!
1/
10
0(
1;
09
1<
0:
0'
#280000
0!
0/
00
1(
#290000
1!
1/
10
0(
1=
0;
0>
0B
0<
0&
#300000
0!
0/
00
1(
#310000
1!
1/
10
0(
0?
0=
1@
11
1>
1#
0"
#320000
0!
0/
00
1(
#330000
1!
1/
10
0(
1?
12
01
0A
13
1%
1$
#340000
0!
0/
00
1(
#350000
1!
1/
10
0(
14
02
15
03
0%
#360000
0!
0/
00
1(
#370000
1!
1/
10
0(
16
04
1A
05
0$
#380000
0!
0/
00
1(
#390000
1!
1/
10
0(
17
06
18
0@
0#
1"
#400000
0!
0/
00
1(
#410000
1!
1/
10
0(
19
07
1B
1:
08
1'
1&
#420000
0!
0/
00
1(
#430000
1!
1/
10
0(
1;
09
1<
0:
0'
#440000
0!
0/
00
1(
#450000
1!
1/
10
0(
1=
0;
0>
0B
0<
0&
#460000
0!
0/
00
1(
#470000
1!
1/
10
0(
0?
0=
1@
11
1>
1#
0"
#480000
0!
0/
00
1(
#490000
1!
1/
10
0(
1?
12
01
0A
13
1%
1$
#500000
0!
0/
00
1(
#510000
1!
1/
10
0(
14
02
15
03
0%
#520000
0!
0/
00
1(
#530000
1!
1/
10
0(
16
04
1A
05
0$
#540000
0!
0/
00
1(
#550000
1!
1/
10
0(
17
06
18
0@
0#
1"
#560000
0!
0/
00
1(
#570000
1!
1/
10
0(
19
07
1B
1:
08
1'
1&
#580000
0!
0/
00
1(
#590000
1!
1/
10
0(
1;
09
1<
0:
0'
#600000
0!
0/
00
1(
#610000
1!
1/
10
0(
1=
0;
0>
0B
0<
0&
#620000
0!
0/
00
1(
#630000
1!
1/
10
0(
0?
0=
1@
11
1>
1#
0"
#640000
0!
0/
00
1(
#650000
1!
1/
10
0(
1?
12
01
0A
13
1%
1$
#660000
0!
0/
00
1(
#670000
1!
1/
10
0(
14
02
15
03
0%
#680000
0!
0/
00
1(
#690000
1!
1/
10
0(
16
04
1A
05
0$
#700000
0!
0/
00
1(
#710000
1!
1/
10
0(
17
06
18
0@
0#
1"
#720000
0!
0/
00
1(
#730000
1!
1/
10
0(
19
07
1B
1:
08
1'
1&
#740000
0!
0/
00
1(
#750000
1!
1/
10
0(
1;
09
1<
0:
0'
#760000
0!
0/
00
1(
#770000
1!
1/
10
0(
1=
0;
0>
0B
0<
0&
#780000
0!
0/
00
1(
#790000
1!
1/
10
0(
0?
0=
1@
11
1>
1#
0"
#800000
0!
0/
00
1(
#810000
1!
1/
10
0(
1?
12
01
0A
13
1%
1$
#820000
0!
0/
00
1(
#830000
1!
1/
10
0(
14
02
15
03
0%
#840000
0!
0/
00
1(
#850000
1!
1/
10
0(
16
04
1A
05
0$
#860000
0!
0/
00
1(
#870000
1!
1/
10
0(
17
06
18
0@
0#
1"
#880000
0!
0/
00
1(
#890000
1!
1/
10
0(
19
07
1B
1:
08
1'
1&
#900000
0!
0/
00
1(
#910000
1!
1/
10
0(
1;
09
1<
0:
0'
#920000
0!
0/
00
1(
#930000
1!
1/
10
0(
1=
0;
0>
0B
0<
0&
#940000
0!
0/
00
1(
#950000
1!
1/
10
0(
0?
0=
1@
11
1>
1#
0"
#960000
0!
0/
00
1(
#970000
1!
1/
10
0(
1?
12
01
0A
13
1%
1$
#980000
0!
0/
00
1(
#990000
1!
1/
10
0(
14
02
15
03
0%
